out/testbench/testbench.1544634355.337354.vcd
$date
    Wed Dec 12 18:05:55 2018
$end
$version
    MyHDL 0.10
$end
$timescale
    1ns
$end

$scope module testbench $end
$var reg 136 ! y $end
$var reg 136 " x $end
$var reg 1 # reset $end
$var reg 1 $ clk $end
$scope module tanh0 $end
$var reg 136 " x $end
$var reg 1 # reset $end
$var reg 1 $ clock $end
$var reg 136 % y_tmp $end
$var reg 136 ! y $end
$scope module cosinus20 $end
$var reg 136 & const_3 $end
$var reg 136 ' const_2 $end
$var reg 136 ( mnoz_sygn_we_pom $end
$var reg 136 ) mnoz_sygn_we $end
$var reg 136 * mnozenie_nawias_si $end
$var reg 136 + d_nawias_si $end
$var reg 136 , p_nawias_si $end
$var reg 136 - p_mnozenie_si $end
$var reg 136 . cosinus $end
$var reg 136 / my_x $end
$var reg 136 " my_input $end
$var reg 1 $ clock $end
$var reg 136 % y $end
$var reg 136 0 wynik_mnoz_sygn_we $end
$var reg 136 1 wynik_dzielenia $end
$var reg 136 2 silnia_mnozenie $end
$var reg 136 3 silnia $end
$var reg 1 # reset $end
$var reg 136 4 pom $end
$var reg 136 5 licznik $end
$var reg 136 6 cos_wyn $end
$var reg 136 7 cos_sklad $end
$var reg 136 8 const_1 $end
$scope module FixedDef0_fx_add0 $end
$var reg 136 / z $end
$var reg 136 " y $end
$var reg 136 5 x $end
$var reg 136 9 add_wide $end
$upscope $end
$scope module FixedDef1_fx_mul0 $end
$var reg 136 - z $end
$var reg 136 5 y $end
$var reg 136 ' x $end
$var reg 272 : mul_wide $end
$upscope $end
$scope module FixedDef0_fx_add1 $end
$var reg 136 , z $end
$var reg 136 ' y $end
$var reg 136 - x $end
$var reg 136 ; add_wide $end
$upscope $end
$scope module FixedDef0_fx_add2 $end
$var reg 136 + z $end
$var reg 136 & y $end
$var reg 136 - x $end
$var reg 136 < add_wide $end
$upscope $end
$scope module FixedDef1_fx_mul1 $end
$var reg 136 * z $end
$var reg 136 + y $end
$var reg 136 , x $end
$var reg 272 = mul_wide $end
$upscope $end
$scope module FixedDef1_fx_mul2 $end
$var reg 136 2 z $end
$var reg 136 * y $end
$var reg 136 3 x $end
$var reg 272 > mul_wide $end
$upscope $end
$scope module FixedDef0_fx_add3 $end
$var reg 136 7 z $end
$var reg 136 6 y $end
$var reg 136 0 x $end
$var reg 136 ? add_wide $end
$upscope $end
$scope module FixedDef1_fx_mul3 $end
$var reg 136 ) z $end
$var reg 136 " y $end
$var reg 136 " x $end
$var reg 272 @ mul_wide $end
$upscope $end
$scope module FixedDef1_fx_mul4 $end
$var reg 136 0 z $end
$var reg 136 ) y $end
$var reg 136 4 x $end
$var reg 272 A mul_wide $end
$upscope $end
$upscope $end
$upscope $end
$upscope $end

$enddefinitions $end
$dumpvars
b0000000000000000000000000000000000000000000000000000000000000000000000000000000000000000000000000000000000000000000000000000000000000000 !
b0000000000000000000000000000000000000000000000000000000000000000000000000000000000000000000000000000000000000000000000000000000000000000 "
0#
0$
b0000000000000000000000000000000000000000000000000000000000000000000000000000000000000000000000000000000000000000000000000000000000000000 %
b0000000000000000000000000000000000000000000000000000000000000000000000000000000000000000000000000000000000000000000000000000001100000000 &
b0000000000000000000000000000000000000000000000000000000000000000000000000000000000000000000000000000000000000000000000000000001000000000 '
b0000000000000000000000000000000000000000000000000000000000000000000000000000000000000000000000000000000000000000000000000000000100000000 (
b0000000000000000000000000000000000000000000000000000000000000000000000000000000000000000000000000000000000000000000000000000000100000000 )
b0000000000000000000000000000000000000000000000000000000000000000000000000000000000000000000000000000000000000000000000000000000000000000 *
b0000000000000000000000000000000000000000000000000000000000000000000000000000000000000000000000000000000000000000000000000000000000000000 +
b0000000000000000000000000000000000000000000000000000000000000000000000000000000000000000000000000000000000000000000000000000000000000000 ,
b0000000000000000000000000000000000000000000000000000000000000000000000000000000000000000000000000000000000000000000000000000000000000000 -
b0000000000000000000000000000000000000000000000000000000000000000000000000000000000000000000000000000000000000000000000000000000000000000 .
b0000000000000000000000000000000000000000000000000000000000000000000000000000000000000000000000000000000000000000000000000000000000000000 /
b0000000000000000000000000000000000000000000000000000000000000000000000000000000000000000000000000000000000000000000000000000000100000000 0
b0000000000000000000000000000000000000000000000000000000000000000000000000000000000000000000000000000000000000000000000000000000000000000 1
b0000000000000000000000000000000000000000000000000000000000000000000000000000000000000000000000000000000000000000000000000000000100000000 2
b0000000000000000000000000000000000000000000000000000000000000000000000000000000000000000000000000000000000000000000000000000000100000000 3
b0000000000000000000000000000000000000000000000000000000000000000000000000000000000000000000000000000000000000000000000000000000100000000 4
b0000000000000000000000000000000000000000000000000000000000000000000000000000000000000000000000000000000000000000000000000000000000000000 5
b0000000000000000000000000000000000000000000000000000000000000000000000000000000000000000000000000000000000000000000000000000000000000000 6
b0000000000000000000000000000000000000000000000000000000000000000000000000000000000000000000000000000000000000000000000000000000000000000 7
b0000000000000000000000000000000000000000000000000000000000000000000000000000000000000000000000000000000000000000000000000000000100000000 8
b0000000000000000000000000000000000000000000000000000000000000000000000000000000000000000000000000000000000000000000000000000000000000000 9
b00000000000000000000000000000000000000000000000000000000000000000000000000000000000000000000000000000000000000000000000000000000000000000000000000000000000000000000000000000000000000000000000000000000000000000000000000000000000000000000000000000000000000000000000000000000 :
b0000000000000000000000000000000000000000000000000000000000000000000000000000000000000000000000000000000000000000000000000000000000000000 ;
b0000000000000000000000000000000000000000000000000000000000000000000000000000000000000000000000000000000000000000000000000000000000000000 <
b00000000000000000000000000000000000000000000000000000000000000000000000000000000000000000000000000000000000000000000000000000000000000000000000000000000000000000000000000000000000000000000000000000000000000000000000000000000000000000000000000000000000000000000000000000000 =
b00000000000000000000000000000000000000000000000000000000000000000000000000000000000000000000000000000000000000000000000000000000000000000000000000000000000000000000000000000000000000000000000000000000000000000000000000000000000000000000000000000000000000000000000000000000 >
b0000000000000000000000000000000000000000000000000000000000000000000000000000000000000000000000000000000000000000000000000000000000000000 ?
b00000000000000000000000000000000000000000000000000000000000000000000000000000000000000000000000000000000000000000000000000000000000000000000000000000000000000000000000000000000000000000000000000000000000000000000000000000000000000000000000000000000000000000000000000000000 @
b00000000000000000000000000000000000000000000000000000000000000000000000000000000000000000000000000000000000000000000000000000000000000000000000000000000000000000000000000000000000000000000000000000000000000000000000000000000000000000000000000000000000000000000000000000000 A
$end
b0000000000000000000000000000000000000000000000000000000000000000000000000000000000000000000000000000000000000000000000000000000000000000 0
b00000000000000000000000000000000000000000000000000000000000000000000000000000000000000000000000000000000000000000000000000000000000000000000000000000000000000000000000000000000000000000000000000000000000000000000000000000000000000000000000000000000000000010000000000000000 A
b0000000000000000000000000000000000000000000000000000000000000000000000000000000000000000000000000000000000000000000000000000000000000000 )
b0000000000000000000000000000000000000000000000000000000000000000000000000000000000000000000000000000000000000000000000000000000100000000 ?
b0000000000000000000000000000000000000000000000000000000000000000000000000000000000000000000000000000000000000000000000000000000000000000 2
b0000000000000000000000000000000000000000000000000000000000000000000000000000000000000000000000000000000000000000000000000000001100000000 <
b0000000000000000000000000000000000000000000000000000000000000000000000000000000000000000000000000000000000000000000000000000001000000000 ;
b0000000000000000000000000000000000000000000000000000000000000000000000000000000000000000000000000000000000000000000000000000001000000000 ,
b0000000000000000000000000000000000000000000000000000000000000000000000000000000000000000000000000000000000000000000000000000001100000000 +
b0000000000000000000000000000000000000000000000000000000000000000000000000000000000000000000000000000000000000000000000000000000100000000 7
b00000000000000000000000000000000000000000000000000000000000000000000000000000000000000000000000000000000000000000000000000000000000000000000000000000000000000000000000000000000000000000000000000000000000000000000000000000000000000000000000000000000000000000000000000000000 A
b0000000000000000000000000000000000000000000000000000000000000000000000000000000000000000000000000000000000000000000000000000000100000000 0
b0000000000000000000000000000000000000000000000000000000000000000000000000000000000000000000000000000000000000000000000000000000000000000 ?
b0000000000000000000000000000000000000000000000000000000000000000000000000000000000000000000000000000000000000000000000000000000000000000 7
b0000000000000000000000000000000000000000000000000000000000000000000000000000000000000000000000000000000000000000000000000000000100000000 ?
b0000000000000000000000000000000000000000000000000000000000000000000000000000000000000000000000000000000000000000000000000000000000000000 0
b00000000000000000000000000000000000000000000000000000000000000000000000000000000000000000000000000000000000000000000000000000000000000000000000000000000000000000000000000000000000000000000000000000000000000000000000000000000000000000000000000000000000001100000000000000000 =
b0000000000000000000000000000000000000000000000000000000000000000000000000000000000000000000000000000000000000000000000000000011000000000 *
b0000000000000000000000000000000000000000000000000000000000000000000000000000000000000000000000000000000000000000000000000000000000000000 ?
b0000000000000000000000000000000000000000000000000000000000000000000000000000000000000000000000000000000000000000000000000000000100000000 7
b0000000000000000000000000000000000000000000000000000000000000000000000000000000000000000000000000000000000000000000000000000000000000000 7
b00000000000000000000000000000000000000000000000000000000000000000000000000000000000000000000000000000000000000000000000000000000000000000000000000000000000000000000000000000000000000000000000000000000000000000000000000000000000000000000000000000000000001100000000000000000 >
b0000000000000000000000000000000000000000000000000000000000000000000000000000000000000000000000000000000000000000000000000000011000000000 2
#5
1$
b0000000000000000000000000000000000000000000000000000000000000000000000000000000000000000000000000000000000000000000000000000000100000000 0
b0000000000000000000000000000000000000000000000000000000000000000000000000000000000000000000000000000000000000000000000000000000100000000 ?
b0000000000000000000000000000000000000000000000000000000000000000000000000000000000000000000000000000000000000000000000000000000100000000 7
#10
0$
1#
#15
1$
b0000000000000000000000000000000000000000000000000000000000000000000000000000000000000000000000000000000000000000000000010000000000000000 6
b0000000000000000000000000000000000000000000000000000000000000000000000000000000000000000000000000000000000000000000000000000011000000000 3
b0000000000000000000000000000000000000000000000000000000000000000000000000000000000000000000000000000000000000000000000000000000100000000 5
b0000000000000000000000000000000000000000000000000000000000000000000000000000000000000000000000000000000000000000000000000000000000000001 %
b0000000000000000000000000000000000000000000000000000000000000000000000000000000000000000000000000000000000000000000000000000000100000000 9
b00000000000000000000000000000000000000000000000000000000000000000000000000000000000000000000000000000000000000000000000000000000000000000000000000000000000000000000000000000000000000000000000000000000000000000000000000000000000000000000000000000000000000100000000000000000 :
b00000000000000000000000000000000000000000000000000000000000000000000000000000000000000000000000000000000000000000000000000000000000000000000000000000000000000000000000000000000000000000000000000000000000000000000000000000000000000000000000000000000001001000000000000000000 >
b0000000000000000000000000000000000000000000000000000000000000000000000000000000000000000000000000000000000000000000000010000000100000000 ?
b0000000000000000000000000000000000000000000000000000000000000000000000000000000000000000000000000000000000000000000000010000000100000000 7
b0000000000000000000000000000000000000000000000000000000000000000000000000000000000000000000000000000000000000000000000000010010000000000 2
b0000000000000000000000000000000000000000000000000000000000000000000000000000000000000000000000000000000000000000000000000000001000000000 -
b0000000000000000000000000000000000000000000000000000000000000000000000000000000000000000000000000000000000000000000000000000000100000000 /
b0000000000000000000000000000000000000000000000000000000000000000000000000000000000000000000000000000000000000000000000000000010000000000 ;
b0000000000000000000000000000000000000000000000000000000000000000000000000000000000000000000000000000000000000000000000000000010100000000 <
b0000000000000000000000000000000000000000000000000000000000000000000000000000000000000000000000000000000000000000000000000000010100000000 +
b0000000000000000000000000000000000000000000000000000000000000000000000000000000000000000000000000000000000000000000000000000010000000000 ,
b00000000000000000000000000000000000000000000000000000000000000000000000000000000000000000000000000000000000000000000000000000000000000000000000000000000000000000000000000000000000000000000000000000000000000000000000000000000000000000000000000000000000101000000000000000000 =
b0000000000000000000000000000000000000000000000000000000000000000000000000000000000000000000000000000000000000000000000000001010000000000 *
b00000000000000000000000000000000000000000000000000000000000000000000000000000000000000000000000000000000000000000000000000000000000000000000000000000000000000000000000000000000000000000000000000000000000000000000000000000000000000000000000000000000011110000000000000000000 >
b0000000000000000000000000000000000000000000000000000000000000000000000000000000000000000000000000000000000000000000000000111100000000000 2
#20
0$
b0000000000000000000000000000000000000000000000000000000000000000000000000000000000000000000000000000000000000000000000000011110000000000 "
b0000000000000000000000000000000000000000000000000000000000000000000000000000000000000000000000000000000000000000000000000011110100000000 9
b00000000000000000000000000000000000000000000000000000000000000000000000000000000000000000000000000000000000000000000000000000000000000000000000000000000000000000000000000000000000000000000000000000000000000000000000000000000000000000000000000001110000100000000000000000000 @
b0000000000000000000000000000000000000000000000000000000000000000000000000000000000000000000000000000000000000000000011100001000000000000 )
b0000000000000000000000000000000000000000000000000000000000000000000000000000000000000000000000000000000000000000000000000011110100000000 /
b00000000000000000000000000000000000000000000000000000000000000000000000000000000000000000000000000000000000000000000000000000000000000000000000000000000000000000000000000000000000000000000000000000000000000000000000000000000000000000000000000001110000100000000000000000000 A
b0000000000000000000000000000000000000000000000000000000000000000000000000000000000000000000000000000000000000000000011100001000000000000 0
b0000000000000000000000000000000000000000000000000000000000000000000000000000000000000000000000000000000000000000000011110001000000000000 ?
b0000000000000000000000000000000000000000000000000000000000000000000000000000000000000000000000000000000000000000000011110001000000000000 7
#25
1$
b0000000000000000000000000000000000000000000000000000000000000000000000000000000000000000000000000000000000000000000011100001000000000000 4
b0000000000000000000000000000000000000000000000000000000000000000000000000000000000000000000000000000000000001111000100000000000000000000 6
b0000000000000000000000000000000000000000000000000000000000000000000000000000000000000000000000000000000000000000000000000111100000000000 3
b0000000000000000000000000000000000000000000000000000000000000000000000000000000000000000000000000000000000000000000000000000000000101010 1
b0000000000000000000000000000000000000000000000000000000000000000000000000000000000000000000000000000000000000000000000000000001000000000 5
b0000000000000000000000000000000000000000000000000000000000000000000000000000000000000000000000000000000000000000000000000000000000000001 !
b0000000000000000000000000000000000000000000000000000000000000000000000000000000000000000000000000000000000000000000000000011111000000000 9
b00000000000000000000000000000000000000000000000000000000000000000000000000000000000000000000000000000000000000000000000000000000000000000000000000000000000000000000000000000000000000000000000000000000000000000000000000000000000000000000000000000000000001000000000000000000 :
b00000000000000000000000000000000000000000000000000000000000000000000000000000000000000000000000000000000000000000000000000000000000000000000000000000000000000000000000000000000000000000000000000000000000000000000000000000000000000000000000000001001011000000000000000000000 >
b0000000000000000000000000000000000000000000000000000000000000000000000000000000000000000000000000000000000001111000111100001000000000000 ?
b00000000000000000000000000000000000000000000000000000000000000000000000000000000000000000000000000000000000000000000000000000000000000000000000000000000000000000000000000000000000000000000000000000000000000000000000000000000000000001100010111000001000000000000000000000000 A
b0000000000000000000000000000000000000000000000000000000000000000000000000000000000000000000000000000000011000101110000010000000000000000 0
b0000000000000000000000000000000000000000000000000000000000000000000000000000000000000000000000000000000000001111000111100001000000000000 7
b0000000000000000000000000000000000000000000000000000000000000000000000000000000000000000000000000000000000000000000010010110000000000000 2
b0000000000000000000000000000000000000000000000000000000000000000000000000000000000000000000000000000000000000000000000000000010000000000 -
b0000000000000000000000000000000000000000000000000000000000000000000000000000000000000000000000000000000000000000000000000011111000000000 /
b0000000000000000000000000000000000000000000000000000000000000000000000000000000000000000000000000000000000000000000000000000011100000000 <
b0000000000000000000000000000000000000000000000000000000000000000000000000000000000000000000000000000000000000000000000000000011000000000 ;
b0000000000000000000000000000000000000000000000000000000000000000000000000000000000000000000000000000000011010100110100010000000000000000 ?
b0000000000000000000000000000000000000000000000000000000000000000000000000000000000000000000000000000000011010100110100010000000000000000 7
b0000000000000000000000000000000000000000000000000000000000000000000000000000000000000000000000000000000000000000000000000000011000000000 ,
b0000000000000000000000000000000000000000000000000000000000000000000000000000000000000000000000000000000000000000000000000000011100000000 +
b00000000000000000000000000000000000000000000000000000000000000000000000000000000000000000000000000000000000000000000000000000000000000000000000000000000000000000000000000000000000000000000000000000000000000000000000000000000000000000000000000000000001010100000000000000000 =
b0000000000000000000000000000000000000000000000000000000000000000000000000000000000000000000000000000000000000000000000000010101000000000 *
b00000000000000000000000000000000000000000000000000000000000000000000000000000000000000000000000000000000000000000000000000000000000000000000000000000000000000000000000000000000000000000000000000000000000000000000000000000000000000000000000000010011101100000000000000000000 >
b0000000000000000000000000000000000000000000000000000000000000000000000000000000000000000000000000000000000000000000100111011000000000000 2
#30
0$
#35
1$
b0000000000000000000000000000000000000000000000000000000000000000000000000000000000000000000000000000000011000101110000010000000000000000 4
b0000000000000000000000000000000000000000000000000000000000000000000000000000000000000000000000001101010011010001000000000000000000000000 6
b0000000000000000000000000000000000000000000000000000000000000000000000000000000000000000000000000000000000000000000100111011000000000000 3
b0000000000000000000000000000000000000000000000000000000000000000000000000000000000000000000000000000000000000000000000000010000000100010 1
b0000000000000000000000000000000000000000000000000000000000000000000000000000000000000000000000000000000000000000000000000000001100000000 5
b00000000000000000000000000000000000000000000000000000000000000000000000000000000000000000000000000000000000000000000000000000000000000000000000000000000000000000000000000000000000000000000000000000000000000000000000000000000000000000000000000000000000001100000000000000000 :
b0000000000000000000000000000000000000000000000000000000000000000000000000000000000000000000000000000000000000000000000000011111100000000 9
b00000000000000000000000000000000000000000000000000000000000000000000000000000000000000000000000000000000000000000000000000000000000000000000000000000000000000000000000000000000000000000000000000000000000000000000000000000000000000000000001100111010111000000000000000000000 >
b0000000000000000000000000000000000000000000000000000000000000000000000000000000000000000000000001101010110010110110000010000000000000000 ?
b00000000000000000000000000000000000000000000000000000000000000000000000000000000000000000000000000000000000000000000000000000000000000000000000000000000000000000000000000000000000000000000000000000000000000000000000000001010110111001110101000010000000000000000000000000000 A
b0000000000000000000000000000000000000000000000000000000000000000000000000000000000000000000010101101110011101010000100000000000000000000 0
b0000000000000000000000000000000000000000000000000000000000000000000000000000000000000000000000001101010110010110110000010000000000000000 7
b0000000000000000000000000000000000000000000000000000000000000000000000000000000000000000000000000000000000000011001110101110000000000000 2
b0000000000000000000000000000000000000000000000000000000000000000000000000000000000000000000000000000000000000000000000000011111100000000 /
b0000000000000000000000000000000000000000000000000000000000000000000000000000000000000000000000000000000000000000000000000000011000000000 -
b0000000000000000000000000000000000000000000000000000000000000000000000000000000000000000000000000000000000000000000000000000100000000000 ;
b0000000000000000000000000000000000000000000000000000000000000000000000000000000000000000000000000000000000000000000000000000100100000000 <
b0000000000000000000000000000000000000000000000000000000000000000000000000000000000000000000010111011000110111011000100000000000000000000 ?
b0000000000000000000000000000000000000000000000000000000000000000000000000000000000000000000010111011000110111011000100000000000000000000 7
b0000000000000000000000000000000000000000000000000000000000000000000000000000000000000000000000000000000000000000000000000000100100000000 +
b0000000000000000000000000000000000000000000000000000000000000000000000000000000000000000000000000000000000000000000000000000100000000000 ,
b00000000000000000000000000000000000000000000000000000000000000000000000000000000000000000000000000000000000000000000000000000000000000000000000000000000000000000000000000000000000000000000000000000000000000000000000000000000000000000000000000000000010010000000000000000000 =
b0000000000000000000000000000000000000000000000000000000000000000000000000000000000000000000000000000000000000000000000000100100000000000 *
b00000000000000000000000000000000000000000000000000000000000000000000000000000000000000000000000000000000000000000000000000000000000000000000000000000000000000000000000000000000000000000000000000000000000000000000000000000000000000000000010110001001100000000000000000000000 >
b0000000000000000000000000000000000000000000000000000000000000000000000000000000000000000000000000000000000000101100010011000000000000000 2
#40
0$
#45
1$
b0000000000000000000000000000000000000000000000000000000000000000000000000000000000000000000010101101110011101010000100000000000000000000 4
b0000000000000000000000000000000000000000000000000000000000000000000000000000000000001011101100011011101100010000000000000000000000000000 6
b0000000000000000000000000000000000000000000000000000000000000000000000000000000000000000000000000000000000000101100010011000000000000000 3
b0000000000000000000000000000000000000000000000000000000000000000000000000000000000000000000000000000000000000000000010101100111101001001 1
b0000000000000000000000000000000000000000000000000000000000000000000000000000000000000000000000000000000000000000000000000000010000000000 5
b0000000000000000000000000000000000000000000000000000000000000000000000000000000000000000000000000000000000000000000000000100000000000000 9
b00000000000000000000000000000000000000000000000000000000000000000000000000000000000000000000000000000000000000000000000000000000000000000000000000000000000000000000000000000000000000000000000000000000000000000000000000000000000000000000000000000000000010000000000000000000 :
b00000000000000000000000000000000000000000000000000000000000000000000000000000000000000000000000000000000000000000000000000000000000000000000000000000000000000000000000000000000000000000000000000000000000000000000000000000000000000011000111010101100000000000000000000000000 >
b0000000000000000000000000000000000000000000000000000000000000000000000000000000000001011101111001001011111111010000100000000000000000000 ?
b00000000000000000000000000000000000000000000000000000000000000000000000000000000000000000000000000000000000000000000000000000000000000000000000000000000000000000000000000000000000000000000000000000000000000001001100011000010100110111000000100000000000000000000000000000000 A
b0000000000000000000000000000000000000000000000000000000000000000000000000000000010011000110000101001101110000001000000000000000000000000 0
b0000000000000000000000000000000000000000000000000000000000000000000000000000000000001011101111001001011111111010000100000000000000000000 7
b0000000000000000000000000000000000000000000000000000000000000000000000000000000000000000000000000000000110001110101011000000000000000000 2
b0000000000000000000000000000000000000000000000000000000000000000000000000000000000000000000000000000000000000000000000000000100000000000 -
b0000000000000000000000000000000000000000000000000000000000000000000000000000000000000000000000000000000000000000000000000100000000000000 /
b0000000000000000000000000000000000000000000000000000000000000000000000000000000000000000000000000000000000000000000000000000101100000000 <
b0000000000000000000000000000000000000000000000000000000000000000000000000000000000000000000000000000000000000000000000000000101000000000 ;
b0000000000000000000000000000000000000000000000000000000000000000000000000000000010100100011101000101011010010001000000000000000000000000 ?
b0000000000000000000000000000000000000000000000000000000000000000000000000000000010100100011101000101011010010001000000000000000000000000 7
b0000000000000000000000000000000000000000000000000000000000000000000000000000000000000000000000000000000000000000000000000000101000000000 ,
b0000000000000000000000000000000000000000000000000000000000000000000000000000000000000000000000000000000000000000000000000000101100000000 +
b00000000000000000000000000000000000000000000000000000000000000000000000000000000000000000000000000000000000000000000000000000000000000000000000000000000000000000000000000000000000000000000000000000000000000000000000000000000000000000000000000000000011011100000000000000000 =
b0000000000000000000000000000000000000000000000000000000000000000000000000000000000000000000000000000000000000000000000000110111000000000 *
b00000000000000000000000000000000000000000000000000000000000000000000000000000000000000000000000000000000000000000000000000000000000000000000000000000000000000000000000000000000000000000000000000000000000000000000000000000000000000100110000100010101000000000000000000000000 >
b0000000000000000000000000000000000000000000000000000000000000000000000000000000000000000000000000000001001100001000101010000000000000000 2
#50
0$
#55
1$
b0000000000000000000000000000000000000000000000000000000000000000000000000000000010011000110000101001101110000001000000000000000000000000 4
b0000000000000000000000000000000000000000000000000000000000000000000000001010010001110100010101101001000100000000000000000000000000000000 6
b0000000000000000000000000000000000000000000000000000000000000000000000000000000000000000000000000000001001100001000101010000000000000000 3
b0000000000000000000000000000000000000000000000000000000000000000000000000000000000000000000000000000000000000010000111001010101010101101 1
b0000000000000000000000000000000000000000000000000000000000000000000000000000000000000000000000000000000000000000000000000000010100000000 5
b00000000000000000000000000000000000000000000000000000000000000000000000000000000000000000000000000000000000000000000000000000000000000000000000000000000000000000000000000000000000000000000000000000000000000000000000000000000000000000000000000000000000010100000000000000000 :
b0000000000000000000000000000000000000000000000000000000000000000000000000000000000000000000000000000000000000000000000000100000100000000 9
b00000000000000000000000000000000000000000000000000000000000000000000000000000000000000000000000000000000000000000000000000000000000000000000000000000000000000000000000000000000000000000000000000000000000000000000000000000001000001011011011100000110000000000000000000000000 >
b0000000000000000000000000000000000000000000000000000000000000000000000001010010100001101000110010010110010000001000000000000000000000000 ?
b00000000000000000000000000000000000000000000000000000000000000000000000000000000000000000000000000000000000000000000000000000000000000000000000000000000000000000000000000000000000000000000000000001000011001000011000010101010110001100001000000000000000000000000000000000000 A
b0000000000000000000000000000000000000000000000000000000000000000000010000110010000110000101010101100011000010000000000000000000000000000 0
b0000000000000000000000000000000000000000000000000000000000000000000000001010010100001101000110010010110010000001000000000000000000000000 7
b0000000000000000000000000000000000000000000000000000000000000000000000000000000000000000000000010000010110110111000001100000000000000000 2
b0000000000000000000000000000000000000000000000000000000000000000000000000000000000000000000000000000000000000000000000000100000100000000 /
b0000000000000000000000000000000000000000000000000000000000000000000000000000000000000000000000000000000000000000000000000000101000000000 -
b0000000000000000000000000000000000000000000000000000000000000000000000000000000000000000000000000000000000000000000000000000110000000000 ;
b0000000000000000000000000000000000000000000000000000000000000000000000000000000000000000000000000000000000000000000000000000110100000000 <
b0000000000000000000000000000000000000000000000000000000000000000000010010000100010100101000000010101011100010000000000000000000000000000 ?
b0000000000000000000000000000000000000000000000000000000000000000000010010000100010100101000000010101011100010000000000000000000000000000 7
b0000000000000000000000000000000000000000000000000000000000000000000000000000000000000000000000000000000000000000000000000000110100000000 +
b0000000000000000000000000000000000000000000000000000000000000000000000000000000000000000000000000000000000000000000000000000110000000000 ,
b00000000000000000000000000000000000000000000000000000000000000000000000000000000000000000000000000000000000000000000000000000000000000000000000000000000000000000000000000000000000000000000000000000000000000000000000000000000000000000000000000000000100111000000000000000000 =
b0000000000000000000000000000000000000000000000000000000000000000000000000000000000000000000000000000000000000000000000001001110000000000 *
b00000000000000000000000000000000000000000000000000000000000000000000000000000000000000000000000000000000000000000000000000000000000000000000000000000000000000000000000000000000000000000000000000000000000000000000000000000001011100110010100011001100000000000000000000000000 >
b0000000000000000000000000000000000000000000000000000000000000000000000000000000000000000000000010111001100101000110011000000000000000000 2
#60
0$
#65
1$
b0000000000000000000000000000000000000000000000000000000000000000000010000110010000110000101010101100011000010000000000000000000000000000 4
b0000000000000000000000000000000000000000000000000000000000001001000010001010010100000001010101110001000000000000000000000000000000000000 6
b0000000000000000000000000000000000000000000000000000000000000000000000000000000000000000000000010111001100101000110011000000000000000000 3
b0000000000000000000000000000000000000000000000000000000000000000000000000000000000000000000000000000000001000101000111101111011110011010 1
b0000000000000000000000000000000000000000000000000000000000000000000000000000000000000000000000000000000000000000000000000000011000000000 5
b0000000000000000000000000000000000000000000000000000000000000000000000000000000000000000000000000000000000000000000000000100001000000000 9
b00000000000000000000000000000000000000000000000000000000000000000000000000000000000000000000000000000000000000000000000000000000000000000000000000000000000000000000000000000000000000000000000000000000000000000000000000000000000000000000000000000000000011000000000000000000 :
b00000000000000000000000000000000000000000000000000000000000000000000000000000000000000000000000000000000000000000000000000000000000000000000000000000000000000000000000000000000000000000000000000000000000000000000000011100010001011001101110001010000000000000000000000000000 >
b0000000000000000000000000000000000000000000000000000000000001001000100010000100100110010000000011101011000010000000000000000000000000000 ?
b00000000000000000000000000000000000000000000000000000000000000000000000000000000000000000000000000000000000000000000000000000000000000000000000000000000000000000000000000000000000000000111011000000000111011000110000110000001010000010000000000000000000000000000000000000000 A
b0000000000000000000000000000000000000000000000000000000001110110000000001110110001100001100000010100000100000000000000000000000000000000 0
b0000000000000000000000000000000000000000000000000000000000001001000100010000100100110010000000011101011000010000000000000000000000000000 7
b0000000000000000000000000000000000000000000000000000000000000000000000000000000000000000111000100010110011011100010100000000000000000000 2
b0000000000000000000000000000000000000000000000000000000000000000000000000000000000000000000000000000000000000000000000000000110000000000 -
b0000000000000000000000000000000000000000000000000000000000000000000000000000000000000000000000000000000000000000000000000100001000000000 /
b0000000000000000000000000000000000000000000000000000000000000000000000000000000000000000000000000000000000000000000000000000111100000000 <
b0000000000000000000000000000000000000000000000000000000000000000000000000000000000000000000000000000000000000000000000000000111000000000 ;
b0000000000000000000000000000000000000000000000000000000001111111000010011001000101100010110110000101000100000000000000000000000000000000 ?
b0000000000000000000000000000000000000000000000000000000001111111000010011001000101100010110110000101000100000000000000000000000000000000 7
b0000000000000000000000000000000000000000000000000000000000000000000000000000000000000000000000000000000000000000000000000000111000000000 ,
b0000000000000000000000000000000000000000000000000000000000000000000000000000000000000000000000000000000000000000000000000000111100000000 +
b00000000000000000000000000000000000000000000000000000000000000000000000000000000000000000000000000000000000000000000000000000000000000000000000000000000000000000000000000000000000000000000000000000000000000000000000000000000000000000000000000000000110100100000000000000000 =
b0000000000000000000000000000000000000000000000000000000000000000000000000000000000000000000000000000000000000000000000001101001000000000 *
b00000000000000000000000000000000000000000000000000000000000000000000000000000000000000000000000000000000000000000000000000000000000000000000000000000000000000000000000000000000000000000000000000000000000000000000000100110000011101110111011101011000000000000000000000000000 >
b0000000000000000000000000000000000000000000000000000000000000000000000000000000000000001001100000111011101110111010110000000000000000000 2
#70
0$
