out/testbench/testbench.1544626297.2553508.vcd
$date
    Wed Dec 12 15:51:37 2018
$end
$version
    MyHDL 0.10
$end
$timescale
    1ns
$end

$scope module testbench $end
$var reg 32 ! y $end
$var reg 32 " x $end
$var reg 1 # reset $end
$var reg 1 $ clk $end
$scope module tanh0 $end
$var reg 32 " x $end
$var reg 1 # reset $end
$var reg 1 $ clock $end
$var reg 32 % y_tmp $end
$var reg 32 ! y $end
$scope module cosinus20 $end
$var reg 32 & const_3 $end
$var reg 32 ' const_2 $end
$var reg 32 ( mnozenie_nawias_si $end
$var reg 32 ) d_nawias_si $end
$var reg 32 * p_nawias_si $end
$var reg 32 + p_mnozenie_si $end
$var reg 32 , my_x $end
$var reg 32 " my_input $end
$var reg 1 # reset $end
$var reg 1 $ clock $end
$var reg 32 % y $end
$var reg 32 - wynik_dzielenia $end
$var reg 32 . silnia_mnozenie $end
$var reg 32 / silnia $end
$var reg 32 0 licznik $end
$var reg 32 1 cosinus $end
$var reg 32 2 cos_wyn $end
$var reg 32 3 cos_sklad $end
$var reg 32 4 const_1 $end
$scope module FixedDef0_fx_add0 $end
$var reg 32 , z $end
$var reg 32 " y $end
$var reg 32 0 x $end
$var reg 32 5 add_wide $end
$upscope $end
$scope module FixedDef1_fx_mul0 $end
$var reg 32 + z $end
$var reg 32 0 y $end
$var reg 32 ' x $end
$var reg 64 6 mul_wide $end
$upscope $end
$scope module FixedDef0_fx_add1 $end
$var reg 32 * z $end
$var reg 32 ' y $end
$var reg 32 + x $end
$var reg 32 7 add_wide $end
$upscope $end
$scope module FixedDef0_fx_add2 $end
$var reg 32 ) z $end
$var reg 32 & y $end
$var reg 32 + x $end
$var reg 32 8 add_wide $end
$upscope $end
$scope module FixedDef1_fx_mul1 $end
$var reg 32 ( z $end
$var reg 32 ) y $end
$var reg 32 * x $end
$var reg 64 9 mul_wide $end
$upscope $end
$scope module FixedDef1_fx_mul2 $end
$var reg 32 . z $end
$var reg 32 ( y $end
$var reg 32 / x $end
$var reg 64 : mul_wide $end
$upscope $end
$scope module FixedDef0_fx_add3 $end
$var reg 32 3 z $end
$var reg 32 2 y $end
$var reg 32 " x $end
$var reg 32 ; add_wide $end
$upscope $end
$upscope $end
$upscope $end
$upscope $end

$enddefinitions $end
$dumpvars
b00000000000000000000000000000000 !
b00000000000000000000000000000000 "
0#
0$
b00000000000000000000000000000000 %
b00000000000000110000000000000000 &
b00000000000000100000000000000000 '
b00000000000000000000000000000000 (
b00000000000000000000000000000000 )
b00000000000000000000000000000000 *
b00000000000000000000000000000000 +
b00000000000000000000000000000000 ,
b00000000000000000000000000000000 -
b00000000000000010000000000000000 .
b00000000000000010000000000000000 /
b00000000000000000000000000000000 0
b00000000000000000000000000000000 1
b00000000000000000000000000000000 2
b00000000000000000000000000000000 3
b00000000000000010000000000000000 4
b00000000000000000000000000000000 5
b0000000000000000000000000000000000000000000000000000000000000000 6
b00000000000000000000000000000000 7
b00000000000000000000000000000000 8
b0000000000000000000000000000000000000000000000000000000000000000 9
b0000000000000000000000000000000000000000000000000000000000000000 :
b00000000000000000000000000000000 ;
$end
b00000000000000000000000000000000 .
b00000000000000110000000000000000 8
b00000000000000100000000000000000 7
b00000000000000100000000000000000 *
b00000000000000110000000000000000 )
b0000000000000000000000000000011000000000000000000000000000000000 9
b00000000000001100000000000000000 (
b0000000000000000000000000000011000000000000000000000000000000000 :
b00000000000001100000000000000000 .
#5
1$
#10
0$
1#
#15
1$
b00000000000001100000000000000000 /
b00000000000000010000000000000000 0
b00000000000000010000000000000000 5
b0000000000000000000000000000001000000000000000000000000000000000 6
b0000000000000000000000000010010000000000000000000000000000000000 :
b00000000001001000000000000000000 .
b00000000000000100000000000000000 +
b00000000000000010000000000000000 ,
b00000000000001000000000000000000 7
b00000000000001010000000000000000 8
b00000000000001010000000000000000 )
b00000000000001000000000000000000 *
b0000000000000000000000000001010000000000000000000000000000000000 9
b00000000000101000000000000000000 (
b0000000000000000000000000111100000000000000000000000000000000000 :
b00000000011110000000000000000000 .
#20
0$
b00000000000000010000000000000000 "
b00000000000000100000000000000000 5
b00000000000000010000000000000000 ;
b00000000000000010000000000000000 3
b00000000000000100000000000000000 ,
#25
1$
b00000000000000010000000000000000 2
b00000000011110000000000000000000 /
b00000000000000100000000000000000 0
b00000000000000110000000000000000 5
b0000000000000000000000000000010000000000000000000000000000000000 6
b0000000000000000000010010110000000000000000000000000000000000000 :
b00000000000000100000000000000000 ;
b00000000000000100000000000000000 3
b00001001011000000000000000000000 .
b00000000000001000000000000000000 +
b00000000000000110000000000000000 ,
b00000000000001110000000000000000 8
b00000000000001100000000000000000 7
b00000000000001100000000000000000 *
b00000000000001110000000000000000 )
b0000000000000000000000000010101000000000000000000000000000000000 9
b00000000001010100000000000000000 (
b0000000000000000000100111011000000000000000000000000000000000000 :
b00010011101100000000000000000000 .
#30
0$
#35
1$
b00000000000000100000000000000000 2
b00010011101100000000000000000000 /
b00000000000000110000000000000000 0
b0000000000000000000000000000011000000000000000000000000000000000 6
b00000000000001000000000000000000 5
b0000000000000011001110101110000000000000000000000000000000000000 :
b00000000000000110000000000000000 ;
b00000000000000110000000000000000 3
b00111010111000000000000000000000 .
b00000000000001000000000000000000 ,
b00000000000001100000000000000000 +
b00000000000010000000000000000000 7
b00000000000010010000000000000000 8
b00000000000010010000000000000000 )
b00000000000010000000000000000000 *
b0000000000000000000000000100100000000000000000000000000000000000 9
b00000000010010000000000000000000 (
b0000000000000101100010011000000000000000000000000000000000000000 :
b10001001100000000000000000000000 .
#40
0$
#45
1$
b00000000000000110000000000000000 2
b10001001100000000000000000000000 /
b00000000000001000000000000000000 0
b00000000000001010000000000000000 5
b0000000000000000000000000000100000000000000000000000000000000000 6
b1111111111011110101011000000000000000000000000000000000000000000 :
b00000000000001000000000000000000 ;
b00000000000001000000000000000000 3
b10101100000000000000000000000000 .
b00000000000010000000000000000000 +
b00000000000001010000000000000000 ,
b00000000000010110000000000000000 8
b00000000000010100000000000000000 7
b00000000000010100000000000000000 *
b00000000000010110000000000000000 )
b0000000000000000000000000110111000000000000000000000000000000000 9
b00000000011011100000000000000000 (
b1111111111001101000101010000000000000000000000000000000000000000 :
b00010101000000000000000000000000 .
#50
0$
#55
1$
b00000000000001000000000000000000 2
b00010101000000000000000000000000 /
b00000000000001010000000000000000 0
b0000000000000000000000000000101000000000000000000000000000000000 6
b00000000000001100000000000000000 5
b0000000000001001000001100000000000000000000000000000000000000000 :
b00000000000001010000000000000000 ;
b00000000000001010000000000000000 3
b00000110000000000000000000000000 .
b00000000000001100000000000000000 ,
b00000000000010100000000000000000 +
b00000000000011000000000000000000 7
b00000000000011010000000000000000 8
b00000000000011010000000000000000 )
b00000000000011000000000000000000 *
b0000000000000000000000001001110000000000000000000000000000000000 9
b00000000100111000000000000000000 (
b0000000000001100110011000000000000000000000000000000000000000000 :
b11001100000000000000000000000000 .
#60
0$
#65
1$
b00000000000001010000000000000000 2
b11001100000000000000000000000000 /
b00000000000001100000000000000000 0
b00000000000001110000000000000000 5
b0000000000000000000000000000110000000000000000000000000000000000 6
b1111111111100000010100000000000000000000000000000000000000000000 :
b00000000000001100000000000000000 ;
b00000000000001100000000000000000 3
b01010000000000000000000000000000 .
b00000000000011000000000000000000 +
b00000000000001110000000000000000 ,
b00000000000011110000000000000000 8
b00000000000011100000000000000000 7
b00000000000011100000000000000000 *
b00000000000011110000000000000000 )
b0000000000000000000000001101001000000000000000000000000000000000 9
b00000000110100100000000000000000 (
b1111111111010101010110000000000000000000000000000000000000000000 :
b01011000000000000000000000000000 .
#70
0$
#75
1$
b00000000000001100000000000000000 2
b01011000000000000000000000000000 /
b00000000000001110000000000000000 0
b0000000000000000000000000000111000000000000000000000000000000000 6
b00000000000010000000000000000000 5
b0000000001001000001100000000000000000000000000000000000000000000 :
b00000000000001110000000000000000 ;
b00000000000001110000000000000000 3
b00110000000000000000000000000000 .
b00000000000010000000000000000000 ,
b00000000000011100000000000000000 +
b00000000000100000000000000000000 7
b00000000000100010000000000000000 8
b00000000000100010000000000000000 )
b00000000000100000000000000000000 *
b0000000000000000000000010001000000000000000000000000000000000000 9
b00000001000100000000000000000000 (
b0000000001011101100000000000000000000000000000000000000000000000 :
b10000000000000000000000000000000 .
