out/testbench/testbench.1544624733.2885716.vcd
$date
    Wed Dec 12 15:25:33 2018
$end
$version
    MyHDL 0.10
$end
$timescale
    1ns
$end

$scope module testbench $end
$var reg 32 ! y $end
$var reg 32 " x $end
$var reg 1 # reset $end
$var reg 1 $ clk $end
$scope module tanh0 $end
$var reg 32 " x $end
$var reg 1 # reset $end
$var reg 1 $ clock $end
$var reg 32 % y_tmp $end
$var reg 32 ! y $end
$scope module cosinus20 $end
$var reg 32 & const_3 $end
$var reg 32 ' const_2 $end
$var reg 32 ( pomocniczy $end
$var reg 32 ) p_mnozenie_si $end
$var reg 32 * silnia $end
$var reg 32 + my_x $end
$var reg 32 " my_input $end
$var reg 1 # reset $end
$var reg 1 $ clock $end
$var reg 32 % y $end
$var reg 32 , licznik $end
$var reg 32 - cosinus $end
$var reg 32 . const_1 $end
$scope module FixedDef0_fx_add0 $end
$var reg 32 + z $end
$var reg 32 " y $end
$var reg 32 , x $end
$var reg 32 / add_wide $end
$upscope $end
$scope module FixedDef1_fx_mul0 $end
$var reg 32 ) z $end
$var reg 32 , y $end
$var reg 32 ' x $end
$var reg 64 0 mul_wide $end
$upscope $end
$scope module FixedDef0_fx_add1 $end
$var reg 32 ( z $end
$var reg 32 ' y $end
$var reg 32 ) x $end
$var reg 32 1 add_wide $end
$upscope $end
$upscope $end
$upscope $end
$upscope $end

$enddefinitions $end
$dumpvars
b00000000000000000000000000000000 !
b00000000000000000000000000000000 "
0#
0$
b00000000000000000000000000000000 %
b00000000000000000000000000000010 &
b00000000000000100000000000000000 '
b00000000000000000000000000000000 (
b00000000000000000000000000000000 )
b00000000000000010000000000000000 *
b00000000000000000000000000000000 +
b00000000000000000000000000000000 ,
b00000000000000000000000000000000 -
b00000000000000010000000000000000 .
b00000000000000000000000000000000 /
b0000000000000000000000000000000000000000000000000000000000000000 0
b00000000000000000000000000000000 1
$end
b00000000000000100000000000000000 1
b00000000000000100000000000000000 (
#5
1$
#10
0$
1#
#15
1$
b00000000000000010000000000000000 ,
b00000000000000010000000000000000 /
b0000000000000000000000000000001000000000000000000000000000000000 0
b00000000000000100000000000000000 )
b00000000000000010000000000000000 +
b00000000000001000000000000000000 1
b00000000000001000000000000000000 (
#20
0$
b00000000000000010000000000000000 "
b00000000000000100000000000000000 /
b00000000000000100000000000000000 +
#25
1$
b00000000000000100000000000000000 ,
b00000000000000110000000000000000 /
b0000000000000000000000000000010000000000000000000000000000000000 0
b00000000000001000000000000000000 )
b00000000000000110000000000000000 +
b00000000000001100000000000000000 1
b00000000000001100000000000000000 (
#30
0$
#35
1$
b00000000000000110000000000000000 ,
b0000000000000000000000000000011000000000000000000000000000000000 0
b00000000000001000000000000000000 /
b00000000000001000000000000000000 +
b00000000000001100000000000000000 )
b00000000000010000000000000000000 1
b00000000000010000000000000000000 (
#40
0$
#45
1$
b00000000000001000000000000000000 ,
b00000000000001010000000000000000 /
b0000000000000000000000000000100000000000000000000000000000000000 0
b00000000000010000000000000000000 )
b00000000000001010000000000000000 +
b00000000000010100000000000000000 1
b00000000000010100000000000000000 (
#50
0$
#55
1$
b00000000000001010000000000000000 ,
b0000000000000000000000000000101000000000000000000000000000000000 0
b00000000000001100000000000000000 /
b00000000000001100000000000000000 +
b00000000000010100000000000000000 )
b00000000000011000000000000000000 1
b00000000000011000000000000000000 (
#60
0$
#65
1$
b00000000000001100000000000000000 ,
b00000000000001110000000000000000 /
b0000000000000000000000000000110000000000000000000000000000000000 0
b00000000000011000000000000000000 )
b00000000000001110000000000000000 +
b00000000000011100000000000000000 1
b00000000000011100000000000000000 (
#70
0$
#75
1$
b00000000000001110000000000000000 ,
b0000000000000000000000000000111000000000000000000000000000000000 0
b00000000000010000000000000000000 /
b00000000000010000000000000000000 +
b00000000000011100000000000000000 )
b00000000000100000000000000000000 1
b00000000000100000000000000000000 (
#80
0$
#85
1$
b00000000000010000000000000000000 ,
b00000000000010010000000000000000 /
b0000000000000000000000000001000000000000000000000000000000000000 0
b00000000000100000000000000000000 )
b00000000000010010000000000000000 +
b00000000000100100000000000000000 1
b00000000000100100000000000000000 (
#90
0$
#95
1$
b00000000000010010000000000000000 ,
b0000000000000000000000000001001000000000000000000000000000000000 0
b00000000000010100000000000000000 /
b00000000000010100000000000000000 +
b00000000000100100000000000000000 )
b00000000000101000000000000000000 1
b00000000000101000000000000000000 (
#100
0$
#105
1$
b00000000000010100000000000000000 ,
b00000000000010110000000000000000 /
b0000000000000000000000000001010000000000000000000000000000000000 0
b00000000000101000000000000000000 )
b00000000000010110000000000000000 +
b00000000000101100000000000000000 1
b00000000000101100000000000000000 (
#110
0$
#115
1$
b00000000000010110000000000000000 ,
b0000000000000000000000000001011000000000000000000000000000000000 0
b00000000000011000000000000000000 /
b00000000000011000000000000000000 +
b00000000000101100000000000000000 )
b00000000000110000000000000000000 1
b00000000000110000000000000000000 (
#120
0$
#125
1$
b00000000000011000000000000000000 ,
b00000000000011010000000000000000 /
b0000000000000000000000000001100000000000000000000000000000000000 0
b00000000000110000000000000000000 )
b00000000000011010000000000000000 +
b00000000000110100000000000000000 1
b00000000000110100000000000000000 (
#130
0$
#135
1$
b00000000000011010000000000000000 ,
b0000000000000000000000000001101000000000000000000000000000000000 0
b00000000000011100000000000000000 /
b00000000000011100000000000000000 +
b00000000000110100000000000000000 )
b00000000000111000000000000000000 1
b00000000000111000000000000000000 (
#140
0$
#145
1$
b00000000000011100000000000000000 ,
b00000000000011110000000000000000 /
b0000000000000000000000000001110000000000000000000000000000000000 0
b00000000000111000000000000000000 )
b00000000000011110000000000000000 +
b00000000000111100000000000000000 1
b00000000000111100000000000000000 (
#150
0$
#155
1$
b00000000000011110000000000000000 ,
b0000000000000000000000000001111000000000000000000000000000000000 0
b00000000000100000000000000000000 /
b00000000000100000000000000000000 +
b00000000000111100000000000000000 )
b00000000001000000000000000000000 1
b00000000001000000000000000000000 (
#160
0$
#165
1$
b00000000000100000000000000000000 ,
b00000000000100010000000000000000 /
b0000000000000000000000000010000000000000000000000000000000000000 0
b00000000001000000000000000000000 )
b00000000000100010000000000000000 +
b00000000001000100000000000000000 1
b00000000001000100000000000000000 (
#170
0$
#175
1$
b00000000000100010000000000000000 ,
b0000000000000000000000000010001000000000000000000000000000000000 0
b00000000000100100000000000000000 /
b00000000000100100000000000000000 +
b00000000001000100000000000000000 )
b00000000001001000000000000000000 1
b00000000001001000000000000000000 (
#180
0$
#185
1$
b00000000000100100000000000000000 ,
b00000000000100110000000000000000 /
b0000000000000000000000000010010000000000000000000000000000000000 0
b00000000001001000000000000000000 )
b00000000000100110000000000000000 +
b00000000001001100000000000000000 1
b00000000001001100000000000000000 (
#190
0$
#195
1$
b00000000000100110000000000000000 ,
b0000000000000000000000000010011000000000000000000000000000000000 0
b00000000000101000000000000000000 /
b00000000000101000000000000000000 +
b00000000001001100000000000000000 )
b00000000001010000000000000000000 1
b00000000001010000000000000000000 (
#200
0$
#205
1$
b00000000000101000000000000000000 ,
b00000000000101010000000000000000 /
b0000000000000000000000000010100000000000000000000000000000000000 0
b00000000001010000000000000000000 )
b00000000000101010000000000000000 +
b00000000001010100000000000000000 1
b00000000001010100000000000000000 (
#210
0$
#215
1$
b00000000000101010000000000000000 ,
b0000000000000000000000000010101000000000000000000000000000000000 0
b00000000000101100000000000000000 /
b00000000000101100000000000000000 +
b00000000001010100000000000000000 )
b00000000001011000000000000000000 1
b00000000001011000000000000000000 (
#220
0$
#225
1$
b00000000000101100000000000000000 ,
b00000000000101110000000000000000 /
b0000000000000000000000000010110000000000000000000000000000000000 0
b00000000001011000000000000000000 )
b00000000000101110000000000000000 +
b00000000001011100000000000000000 1
b00000000001011100000000000000000 (
#230
0$
#235
1$
b00000000000101110000000000000000 ,
b0000000000000000000000000010111000000000000000000000000000000000 0
b00000000000110000000000000000000 /
b00000000000110000000000000000000 +
b00000000001011100000000000000000 )
b00000000001100000000000000000000 1
b00000000001100000000000000000000 (
#240
0$
#245
1$
b00000000000110000000000000000000 ,
b00000000000110010000000000000000 /
b0000000000000000000000000011000000000000000000000000000000000000 0
b00000000001100000000000000000000 )
b00000000000110010000000000000000 +
b00000000001100100000000000000000 1
b00000000001100100000000000000000 (
#250
0$
#255
1$
b00000000000110010000000000000000 ,
b0000000000000000000000000011001000000000000000000000000000000000 0
b00000000000110100000000000000000 /
b00000000000110100000000000000000 +
b00000000001100100000000000000000 )
b00000000001101000000000000000000 1
b00000000001101000000000000000000 (
#260
0$
#265
1$
b00000000000110100000000000000000 ,
b00000000000110110000000000000000 /
b0000000000000000000000000011010000000000000000000000000000000000 0
b00000000001101000000000000000000 )
b00000000000110110000000000000000 +
b00000000001101100000000000000000 1
b00000000001101100000000000000000 (
#270
0$
#275
1$
b00000000000110110000000000000000 ,
b0000000000000000000000000011011000000000000000000000000000000000 0
b00000000000111000000000000000000 /
b00000000000111000000000000000000 +
b00000000001101100000000000000000 )
b00000000001110000000000000000000 1
b00000000001110000000000000000000 (
#280
0$
#285
1$
b00000000000111000000000000000000 ,
b00000000000111010000000000000000 /
b0000000000000000000000000011100000000000000000000000000000000000 0
b00000000001110000000000000000000 )
b00000000000111010000000000000000 +
b00000000001110100000000000000000 1
b00000000001110100000000000000000 (
#290
0$
#295
1$
b00000000000111010000000000000000 ,
b0000000000000000000000000011101000000000000000000000000000000000 0
b00000000000111100000000000000000 /
b00000000000111100000000000000000 +
b00000000001110100000000000000000 )
b00000000001111000000000000000000 1
b00000000001111000000000000000000 (
#300
0$
#305
1$
b00000000000111100000000000000000 ,
b00000000000111110000000000000000 /
b0000000000000000000000000011110000000000000000000000000000000000 0
b00000000001111000000000000000000 )
b00000000000111110000000000000000 +
b00000000001111100000000000000000 1
b00000000001111100000000000000000 (
#310
0$
#315
1$
b00000000000111110000000000000000 ,
b0000000000000000000000000011111000000000000000000000000000000000 0
b00000000001000000000000000000000 /
b00000000001000000000000000000000 +
b00000000001111100000000000000000 )
b00000000010000000000000000000000 1
b00000000010000000000000000000000 (
#320
0$
#325
1$
b00000000001000000000000000000000 ,
b00000000001000010000000000000000 /
b0000000000000000000000000100000000000000000000000000000000000000 0
b00000000010000000000000000000000 )
b00000000001000010000000000000000 +
b00000000010000100000000000000000 1
b00000000010000100000000000000000 (
