out/testbench/testbench.1544628263.4043407.vcd
$date
    Wed Dec 12 16:24:23 2018
$end
$version
    MyHDL 0.10
$end
$timescale
    1ns
$end

$scope module testbench $end
$var reg 64 ! y $end
$var reg 64 " x $end
$var reg 1 # reset $end
$var reg 1 $ clk $end
$scope module tanh0 $end
$var reg 64 " x $end
$var reg 1 # reset $end
$var reg 1 $ clock $end
$var reg 64 % y_tmp $end
$var reg 64 ! y $end
$scope module cosinus20 $end
$var reg 64 & const_3 $end
$var reg 64 ' const_2 $end
$var reg 64 ( mnoz_sygn_we $end
$var reg 64 ) mnozenie_nawias_si $end
$var reg 64 * d_nawias_si $end
$var reg 64 + p_nawias_si $end
$var reg 64 , p_mnozenie_si $end
$var reg 64 - my_x $end
$var reg 64 " my_input $end
$var reg 1 # reset $end
$var reg 1 $ clock $end
$var reg 64 % y $end
$var reg 64 . wynik_mnoz_sygn_we $end
$var reg 64 / wynik_dzielenia $end
$var reg 64 0 silnia_mnozenie $end
$var real 1 1 silnia $end
$var reg 64 2 pom $end
$var reg 64 3 mnoz_sygn_we_pom $end
$var reg 64 4 licznik $end
$var reg 64 5 cosinus $end
$var reg 64 6 cos_wyn $end
$var reg 64 7 cos_sklad $end
$var reg 64 8 const_1 $end
$scope module FixedDef0_fx_add0 $end
$var reg 64 - z $end
$var reg 64 " y $end
$var reg 64 4 x $end
$var reg 64 9 add_wide $end
$upscope $end
$scope module FixedDef1_fx_mul0 $end
$var reg 64 , z $end
$var reg 64 4 y $end
$var reg 64 ' x $end
$var reg 128 : mul_wide $end
$upscope $end
$scope module FixedDef0_fx_add1 $end
$var reg 64 + z $end
$var reg 64 ' y $end
$var reg 64 , x $end
$var reg 64 ; add_wide $end
$upscope $end
$scope module FixedDef0_fx_add2 $end
$var reg 64 * z $end
$var reg 64 & y $end
$var reg 64 , x $end
$var reg 64 < add_wide $end
$upscope $end
$scope module FixedDef1_fx_mul1 $end
$var reg 64 ) z $end
$var reg 64 * y $end
$var reg 64 + x $end
$var reg 128 = mul_wide $end
$upscope $end
$scope module FixedDef1_fx_mul2 $end
$var reg 64 0 z $end
$var reg 64 ) y $end
$var real 1 1 x $end
$var reg 128 > mul_wide $end
$upscope $end
$scope module FixedDef0_fx_add3 $end
$var reg 64 7 z $end
$var reg 64 6 y $end
$var reg 64 " x $end
$var reg 64 ? add_wide $end
$upscope $end
$scope module FixedDef1_fx_mul3 $end
$var reg 64 ( z $end
$var reg 64 " y $end
$var reg 64 " x $end
$var reg 128 @ mul_wide $end
$upscope $end
$scope module FixedDef1_fx_mul4 $end
$var reg 64 . z $end
$var reg 64 ( y $end
$var reg 64 2 x $end
$var reg 128 A mul_wide $end
$upscope $end
$upscope $end
$upscope $end
$upscope $end

$enddefinitions $end
$dumpvars
b0000000000000000000000000000000000000000000000000000000000000000 !
b0000000000000000000000000000000000000000000000000000000000000000 "
0#
0$
b0000000000000000000000000000000000000000000000000000000000000000 %
b0000000000000000000000000000001100000000000000000000000000000000 &
b0000000000000000000000000000001000000000000000000000000000000000 '
b0000000000000000000000000000000100000000000000000000000000000000 (
b0000000000000000000000000000000000000000000000000000000000000000 )
b0000000000000000000000000000000000000000000000000000000000000000 *
b0000000000000000000000000000000000000000000000000000000000000000 +
b0000000000000000000000000000000000000000000000000000000000000000 ,
b0000000000000000000000000000000000000000000000000000000000000000 -
b0000000000000000000000000000000100000000000000000000000000000000 .
b0000000000000000000000000000000000000000000000000000000000000000 /
b0000000000000000000000000000000100000000000000000000000000000000 0
s0x100000000 1
b0000000000000000000000000000000100000000000000000000000000000000 2
b0000000000000000000000000000000100000000000000000000000000000000 3
b0000000000000000000000000000000000000000000000000000000000000000 4
b0000000000000000000000000000000000000000000000000000000000000000 5
b0000000000000000000000000000000000000000000000000000000000000000 6
b0000000000000000000000000000000000000000000000000000000000000000 7
b0000000000000000000000000000000100000000000000000000000000000000 8
b0000000000000000000000000000000000000000000000000000000000000000 9
b00000000000000000000000000000000000000000000000000000000000000000000000000000000000000000000000000000000000000000000000000000000 :
b0000000000000000000000000000000000000000000000000000000000000000 ;
b0000000000000000000000000000000000000000000000000000000000000000 <
b00000000000000000000000000000000000000000000000000000000000000000000000000000000000000000000000000000000000000000000000000000000 =
b00000000000000000000000000000000000000000000000000000000000000000000000000000000000000000000000000000000000000000000000000000000 >
b0000000000000000000000000000000000000000000000000000000000000000 ?
b00000000000000000000000000000000000000000000000000000000000000000000000000000000000000000000000000000000000000000000000000000000 @
b00000000000000000000000000000000000000000000000000000000000000000000000000000000000000000000000000000000000000000000000000000000 A
$end
b0000000000000000000000000000000000000000000000000000000000000000 .
b00000000000000000000000000000000000000000000000000000000000000010000000000000000000000000000000000000000000000000000000000000000 A
b0000000000000000000000000000000000000000000000000000000000000000 (
b0000000000000000000000000000000000000000000000000000000000000000 0
b0000000000000000000000000000001100000000000000000000000000000000 <
b0000000000000000000000000000001000000000000000000000000000000000 ;
b0000000000000000000000000000001000000000000000000000000000000000 +
b0000000000000000000000000000001100000000000000000000000000000000 *
b00000000000000000000000000000000000000000000000000000000000000000000000000000000000000000000000000000000000000000000000000000000 A
b0000000000000000000000000000000100000000000000000000000000000000 .
b0000000000000000000000000000000000000000000000000000000000000000 .
b00000000000000000000000000000000000000000000000000000000000001100000000000000000000000000000000000000000000000000000000000000000 =
b0000000000000000000000000000011000000000000000000000000000000000 )
b00000000000000000000000000000000000000000000000000000000000001100000000000000000000000000000000000000000000000000000000000000000 >
b0000000000000000000000000000011000000000000000000000000000000000 0
#5
1$
#10
0$
1#
#15
1$
b0000000000000000000000000000000000000000000000000000000000000000 3
s0x600000000 1
b0000000000000000000000000000000100000000000000000000000000000000 4
b0000000000000000000000000000000100000000000000000000000000000000 9
b00000000000000000000000000000000000000000000000000000000000000100000000000000000000000000000000000000000000000000000000000000000 :
b00000000000000000000000000000000000000000000000000000000001001000000000000000000000000000000000000000000000000000000000000000000 >
b0000000000000000000000000010010000000000000000000000000000000000 0
b0000000000000000000000000000001000000000000000000000000000000000 ,
b0000000000000000000000000000000100000000000000000000000000000000 -
b0000000000000000000000000000010000000000000000000000000000000000 ;
b0000000000000000000000000000010100000000000000000000000000000000 <
b0000000000000000000000000000010100000000000000000000000000000000 *
b0000000000000000000000000000010000000000000000000000000000000000 +
b00000000000000000000000000000000000000000000000000000000000101000000000000000000000000000000000000000000000000000000000000000000 =
b0000000000000000000000000001010000000000000000000000000000000000 )
b00000000000000000000000000000000000000000000000000000000011110000000000000000000000000000000000000000000000000000000000000000000 >
b0000000000000000000000000111100000000000000000000000000000000000 0
#20
0$
b0000000000000000000000000000001000000000000000000000000000000000 "
b0000000000000000000000000000001100000000000000000000000000000000 9
b0000000000000000000000000000001000000000000000000000000000000000 ?
b00000000000000000000000000000000000000000000000000000000000001000000000000000000000000000000000000000000000000000000000000000000 @
b0000000000000000000000000000010000000000000000000000000000000000 (
b0000000000000000000000000000001000000000000000000000000000000000 7
b0000000000000000000000000000001100000000000000000000000000000000 -
b00000000000000000000000000000000000000000000000000000000000001000000000000000000000000000000000000000000000000000000000000000000 A
b0000000000000000000000000000010000000000000000000000000000000000 .
#25
1$
b0000000000000000000000000000010000000000000000000000000000000000 3
b0000000000000000000000000000001000000000000000000000000000000000 6
s0x7800000000 1
b0000000000000000000000000000001000000000000000000000000000000000 4
b0000000000000000000000000000000000000000000000000000000000000000 2
b00000000000000000000000000000000000000000000000000000000000000000000000000000000000000000000000000000000000000000000000000000000 A
b0000000000000000000000000000010000000000000000000000000000000000 9
b00000000000000000000000000000000000000000000000000000000000001000000000000000000000000000000000000000000000000000000000000000000 :
b00000000000000000000000000000000000000000000000000001001011000000000000000000000000000000000000000000000000000000000000000000000 >
b0000000000000000000000000000010000000000000000000000000000000000 ?
b0000000000000000000000000000010000000000000000000000000000000000 7
b0000000000000000000010010110000000000000000000000000000000000000 0
b0000000000000000000000000000010000000000000000000000000000000000 ,
b0000000000000000000000000000010000000000000000000000000000000000 -
b0000000000000000000000000000000000000000000000000000000000000000 .
b0000000000000000000000000000011100000000000000000000000000000000 <
b0000000000000000000000000000011000000000000000000000000000000000 ;
b0000000000000000000000000000011000000000000000000000000000000000 +
b0000000000000000000000000000011100000000000000000000000000000000 *
b00000000000000000000000000000000000000000000000000000000001010100000000000000000000000000000000000000000000000000000000000000000 =
b0000000000000000000000000010101000000000000000000000000000000000 )
b00000000000000000000000000000000000000000000000000010011101100000000000000000000000000000000000000000000000000000000000000000000 >
b0000000000000000000100111011000000000000000000000000000000000000 0
#30
0$
#35
1$
b0000000000000000000000000000000000000000000000000000000000000000 3
b0000000000000000000000000000010000000000000000000000000000000000 6
s0x13b000000000 1
b0000000000000000000000000000001100000000000000000000000000000000 4
b0000000000000000000000000000010000000000000000000000000000000000 2
b00000000000000000000000000000000000000000000000000000000000100000000000000000000000000000000000000000000000000000000000000000000 A
b00000000000000000000000000000000000000000000000000000000000001100000000000000000000000000000000000000000000000000000000000000000 :
b0000000000000000000000000000010100000000000000000000000000000000 9
b00000000000000000000000000000000000000000000001100111010111000000000000000000000000000000000000000000000000000000000000000000000 >
b0000000000000000000000000000011000000000000000000000000000000000 ?
b0000000000000000000000000000011000000000000000000000000000000000 7
b0000000000000011001110101110000000000000000000000000000000000000 0
b0000000000000000000000000000010100000000000000000000000000000000 -
b0000000000000000000000000000011000000000000000000000000000000000 ,
b0000000000000000000000000001000000000000000000000000000000000000 .
b0000000000000000000000000000100000000000000000000000000000000000 ;
b0000000000000000000000000000100100000000000000000000000000000000 <
b0000000000000000000000000000100100000000000000000000000000000000 *
b0000000000000000000000000000100000000000000000000000000000000000 +
b00000000000000000000000000000000000000000000000000000000010010000000000000000000000000000000000000000000000000000000000000000000 =
b0000000000000000000000000100100000000000000000000000000000000000 )
b00000000000000000000000000000000000000000000010110001001100000000000000000000000000000000000000000000000000000000000000000000000 >
b0000000000000101100010011000000000000000000000000000000000000000 0
#40
0$
#45
1$
b0000000000000000000000000001000000000000000000000000000000000000 3
b0000000000000000000000000000011000000000000000000000000000000000 6
s0x5898000000000 1
b0000000000000000000000000000010000000000000000000000000000000000 4
b0000000000000000000000000000000000000000000000000000000000000000 2
b00000000000000000000000000000000000000000000000000000000000000000000000000000000000000000000000000000000000000000000000000000000 A
b0000000000000000000000000000011000000000000000000000000000000000 9
b00000000000000000000000000000000000000000000000000000000000010000000000000000000000000000000000000000000000000000000000000000000 :
b00000000000000000000000000000000000000011000111010101100000000000000000000000000000000000000000000000000000000000000000000000000 >
b0000000000000000000000000000100000000000000000000000000000000000 ?
b0000000000000000000000000000100000000000000000000000000000000000 7
b0000000110001110101011000000000000000000000000000000000000000000 0
b0000000000000000000000000000100000000000000000000000000000000000 ,
b0000000000000000000000000000011000000000000000000000000000000000 -
b0000000000000000000000000000000000000000000000000000000000000000 .
b0000000000000000000000000000101100000000000000000000000000000000 <
b0000000000000000000000000000101000000000000000000000000000000000 ;
b0000000000000000000000000000101000000000000000000000000000000000 +
b0000000000000000000000000000101100000000000000000000000000000000 *
b00000000000000000000000000000000000000000000000000000000011011100000000000000000000000000000000000000000000000000000000000000000 =
b0000000000000000000000000110111000000000000000000000000000000000 )
b00000000000000000000000000000000000000100110000100010101000000000000000000000000000000000000000000000000000000000000000000000000 >
b0000001001100001000101010000000000000000000000000000000000000000 0
#50
0$
#55
1$
b0000000000000000000000000000000000000000000000000000000000000000 3
b0000000000000000000000000000100000000000000000000000000000000000 6
s0x261150000000000 1
b0000000000000000000000000000010100000000000000000000000000000000 4
b0000000000000000000000000001000000000000000000000000000000000000 2
b00000000000000000000000000000000000000000000000000000000010000000000000000000000000000000000000000000000000000000000000000000000 A
b00000000000000000000000000000000000000000000000000000000000010100000000000000000000000000000000000000000000000000000000000000000 :
b0000000000000000000000000000011100000000000000000000000000000000 9
b00000000000000000000000000000001000001011011011100000110000000000000000000000000000000000000000000000000000000000000000000000000 >
b0000000000000000000000000000101000000000000000000000000000000000 ?
b0000000000000000000000000000101000000000000000000000000000000000 7
b0000010110110111000001100000000000000000000000000000000000000000 0
b0000000000000000000000000000011100000000000000000000000000000000 -
b0000000000000000000000000000101000000000000000000000000000000000 ,
b0000000000000000000000000100000000000000000000000000000000000000 .
b0000000000000000000000000000110000000000000000000000000000000000 ;
b0000000000000000000000000000110100000000000000000000000000000000 <
b0000000000000000000000000000110100000000000000000000000000000000 *
b0000000000000000000000000000110000000000000000000000000000000000 +
b00000000000000000000000000000000000000000000000000000000100111000000000000000000000000000000000000000000000000000000000000000000 =
b0000000000000000000000001001110000000000000000000000000000000000 )
b00000000000000000000000000000001011100110010100011001100000000000000000000000000000000000000000000000000000000000000000000000000 >
b0111001100101000110011000000000000000000000000000000000000000000 0
#60
0$
#65
1$
b0000000000000000000000000100000000000000000000000000000000000000 3
b0000000000000000000000000000101000000000000000000000000000000000 6
s0x7328cc0000000000 1
b0000000000000000000000000000011000000000000000000000000000000000 4
b0000000000000000000000000000000000000000000000000000000000000000 2
b00000000000000000000000000000000000000000000000000000000000000000000000000000000000000000000000000000000000000000000000000000000 A
b0000000000000000000000000000100000000000000000000000000000000000 9
b00000000000000000000000000000000000000000000000000000000000011000000000000000000000000000000000000000000000000000000000000000000 :
b00000000000000000000000001000110001011001101110001010000000000000000000000000000000000000000000000000000000000000000000000000000 >
b0000000000000000000000000000110000000000000000000000000000000000 ?
b0000000000000000000000000000110000000000000000000000000000000000 7
b0010110011011100010100000000000000000000000000000000000000000000 0
b0000000000000000000000000000110000000000000000000000000000000000 ,
b0000000000000000000000000000100000000000000000000000000000000000 -
b0000000000000000000000000000000000000000000000000000000000000000 .
b0000000000000000000000000000111100000000000000000000000000000000 <
b0000000000000000000000000000111000000000000000000000000000000000 ;
b0000000000000000000000000000111000000000000000000000000000000000 +
b0000000000000000000000000000111100000000000000000000000000000000 *
b00000000000000000000000000000000000000000000000000000000110100100000000000000000000000000000000000000000000000000000000000000000 =
b0000000000000000000000001101001000000000000000000000000000000000 )
b00000000000000000000000001011110011101110111011101011000000000000000000000000000000000000000000000000000000000000000000000000000 >
b0111011101110111010110000000000000000000000000000000000000000000 0
#70
0$
#75
1$
b0000000000000000000000000000000000000000000000000000000000000000 3
b0000000000000000000000000000110000000000000000000000000000000000 6
s0x7777580000000000 1
b0000000000000000000000000000011100000000000000000000000000000000 4
b0000000000000000000000000100000000000000000000000000000000000000 2
b00000000000000000000000000000000000000000000000000000001000000000000000000000000000000000000000000000000000000000000000000000000 A
b00000000000000000000000000000000000000000000000000000000000011100000000000000000000000000000000000000000000000000000000000000000 :
b0000000000000000000000000000100100000000000000000000000000000000 9
b00000000000000000000000001100001111111111110011000110000000000000000000000000000000000000000000000000000000000000000000000000000 >
b0000000000000000000000000000111000000000000000000000000000000000 ?
b0000000000000000000000000000111000000000000000000000000000000000 7
b1111111111100110001100000000000000000000000000000000000000000000 0
b0000000000000000000000000000100100000000000000000000000000000000 -
b0000000000000000000000000000111000000000000000000000000000000000 ,
b0000000000000000000000010000000000000000000000000000000000000000 .
b0000000000000000000000000001000000000000000000000000000000000000 ;
b0000000000000000000000000001000100000000000000000000000000000000 <
b0000000000000000000000000001000100000000000000000000000000000000 *
b0000000000000000000000000001000000000000000000000000000000000000 +
b00000000000000000000000000000000000000000000000000000001000100000000000000000000000000000000000000000000000000000000000000000000 =
b0000000000000000000000010001000000000000000000000000000000000000 )
b00000000000000000000000001111110111011101100110110000000000000000000000000000000000000000000000000000000000000000000000000000000 >
b1110111011001101100000000000000000000000000000000000000000000000 0
#80
0$
#85
1$
b0000000000000000000000010000000000000000000000000000000000000000 3
b0000000000000000000000000000111000000000000000000000000000000000 6
s0xeecd800000000000 1
b0000000000000000000000000000100000000000000000000000000000000000 4
b0000000000000000000000000000000000000000000000000000000000000000 2
b00000000000000000000000000000000000000000000000000000000000000000000000000000000000000000000000000000000000000000000000000000000 A
b0000000000000000000000000000101000000000000000000000000000000000 9
b00000000000000000000000000000000000000000000000000000000000100000000000000000000000000000000000000000000000000000000000000000000 :
b00000000000000000000000011111101101110100101100000000000000000000000000000000000000000000000000000000000000000000000000000000000 >
b0000000000000000000000000001000000000000000000000000000000000000 ?
b0000000000000000000000000001000000000000000000000000000000000000 7
b1011101001011000000000000000000000000000000000000000000000000000 0
b0000000000000000000000000001000000000000000000000000000000000000 ,
b0000000000000000000000000000101000000000000000000000000000000000 -
b0000000000000000000000000000000000000000000000000000000000000000 .
b0000000000000000000000000001001100000000000000000000000000000000 <
b0000000000000000000000000001001000000000000000000000000000000000 ;
b0000000000000000000000000001001000000000000000000000000000000000 +
b0000000000000000000000000001001100000000000000000000000000000000 *
b00000000000000000000000000000000000000000000000000000001010101100000000000000000000000000000000000000000000000000000000000000000 =
b0000000000000000000000010101011000000000000000000000000000000000 )
b00000000000000000000000100111111000001101000100100000000000000000000000000000000000000000000000000000000000000000000000000000000 >
b0000011010001001000000000000000000000000000000000000000000000000 0
#90
0$
#95
1$
b0000000000000000000000000000000000000000000000000000000000000000 3
b0000000000000000000000000001000000000000000000000000000000000000 6
s0x689000000000000 1
b0000000000000000000000000000100100000000000000000000000000000000 4
b0000000000000000000000010000000000000000000000000000000000000000 2
b00000000000000000000000000000000000000000000000000000100000000000000000000000000000000000000000000000000000000000000000000000000 A
b00000000000000000000000000000000000000000000000000000000000100100000000000000000000000000000000000000000000000000000000000000000 :
b0000000000000000000000000000101100000000000000000000000000000000 9
b00000000000000000000000000001000101110110000011000000000000000000000000000000000000000000000000000000000000000000000000000000000 >
b0000000000000000000000000001001000000000000000000000000000000000 ?
b0000000000000000000000000001001000000000000000000000000000000000 7
b1011101100000110000000000000000000000000000000000000000000000000 0
b0000000000000000000000000000101100000000000000000000000000000000 -
b0000000000000000000000000001001000000000000000000000000000000000 ,
b0000000000000000000001000000000000000000000000000000000000000000 .
b0000000000000000000000000001010000000000000000000000000000000000 ;
b0000000000000000000000000001010100000000000000000000000000000000 <
b0000000000000000000000000001010100000000000000000000000000000000 *
b0000000000000000000000000001010000000000000000000000000000000000 +
b00000000000000000000000000000000000000000000000000000001101001000000000000000000000000000000000000000000000000000000000000000000 =
b0000000000000000000000011010010000000000000000000000000000000000 )
b00000000000000000000000000001010101110001100010000000000000000000000000000000000000000000000000000000000000000000000000000000000 >
b1011100011000100000000000000000000000000000000000000000000000000 0
#100
0$
#105
1$
b0000000000000000000001000000000000000000000000000000000000000000 3
b0000000000000000000000000001001000000000000000000000000000000000 6
s0xb8c4000000000000 1
b0000000000000000000000000000101000000000000000000000000000000000 4
b0000000000000000000000000000000000000000000000000000000000000000 2
b00000000000000000000000000000000000000000000000000000000000000000000000000000000000000000000000000000000000000000000000000000000 A
b0000000000000000000000000000110000000000000000000000000000000000 9
b00000000000000000000000000000000000000000000000000000000000101000000000000000000000000000000000000000000000000000000000000000000 :
b00000000000000000000000100101111001000011001000000000000000000000000000000000000000000000000000000000000000000000000000000000000 >
b0000000000000000000000000001010000000000000000000000000000000000 ?
b0000000000000000000000000001010000000000000000000000000000000000 7
b0010000110010000000000000000000000000000000000000000000000000000 0
b0000000000000000000000000001010000000000000000000000000000000000 ,
b0000000000000000000000000000110000000000000000000000000000000000 -
b0000000000000000000000000000000000000000000000000000000000000000 .
b0000000000000000000000000001011100000000000000000000000000000000 <
b0000000000000000000000000001011000000000000000000000000000000000 ;
b0000000000000000000000000001011000000000000000000000000000000000 +
b0000000000000000000000000001011100000000000000000000000000000000 *
b00000000000000000000000000000000000000000000000000000001111110100000000000000000000000000000000000000000000000000000000000000000 =
b0000000000000000000000011111101000000000000000000000000000000000 )
b00000000000000000000000101101101001100110110100000000000000000000000000000000000000000000000000000000000000000000000000000000000 >
b0011001101101000000000000000000000000000000000000000000000000000 0
#110
0$
#115
1$
b0000000000000000000000000000000000000000000000000000000000000000 3
b0000000000000000000000000001010000000000000000000000000000000000 6
s0x3368000000000000 1
b0000000000000000000000000000101100000000000000000000000000000000 4
b0000000000000000000001000000000000000000000000000000000000000000 2
b00000000000000000000000000000000000000000000000000010000000000000000000000000000000000000000000000000000000000000000000000000000 A
b00000000000000000000000000000000000000000000000000000000000101100000000000000000000000000000000000000000000000000000000000000000 :
b0000000000000000000000000000110100000000000000000000000000000000 9
b00000000000000000000000001100101100110111001000000000000000000000000000000000000000000000000000000000000000000000000000000000000 >
b0000000000000000000000000001011000000000000000000000000000000000 ?
b0000000000000000000000000001011000000000000000000000000000000000 7
b1001101110010000000000000000000000000000000000000000000000000000 0
b0000000000000000000000000000110100000000000000000000000000000000 -
b0000000000000000000000000001011000000000000000000000000000000000 ,
b0000000000000000000100000000000000000000000000000000000000000000 .
b0000000000000000000000000001100000000000000000000000000000000000 ;
b0000000000000000000000000001100100000000000000000000000000000000 <
b0000000000000000000000000001100100000000000000000000000000000000 *
b0000000000000000000000000001100000000000000000000000000000000000 +
b00000000000000000000000000000000000000000000000000000010010110000000000000000000000000000000000000000000000000000000000000000000 =
b0000000000000000000000100101100000000000000000000000000000000000 )
b00000000000000000000000001111000011110111100000000000000000000000000000000000000000000000000000000000000000000000000000000000000 >
b0111101111000000000000000000000000000000000000000000000000000000 0
#120
0$
#125
1$
b0000000000000000000100000000000000000000000000000000000000000000 3
b0000000000000000000000000001011000000000000000000000000000000000 6
s0x7bc0000000000000 1
b0000000000000000000000000000110000000000000000000000000000000000 4
b0000000000000000000000000000000000000000000000000000000000000000 2
b00000000000000000000000000000000000000000000000000000000000000000000000000000000000000000000000000000000000000000000000000000000 A
b0000000000000000000000000000111000000000000000000000000000000000 9
b00000000000000000000000000000000000000000000000000000000000110000000000000000000000000000000000000000000000000000000000000000000 :
b00000000000000000000000100100010000010100000000000000000000000000000000000000000000000000000000000000000000000000000000000000000 >
b0000000000000000000000000001100000000000000000000000000000000000 ?
b0000000000000000000000000001100000000000000000000000000000000000 7
b0000101000000000000000000000000000000000000000000000000000000000 0
b0000000000000000000000000001100000000000000000000000000000000000 ,
b0000000000000000000000000000111000000000000000000000000000000000 -
b0000000000000000000000000000000000000000000000000000000000000000 .
b0000000000000000000000000001101100000000000000000000000000000000 <
b0000000000000000000000000001101000000000000000000000000000000000 ;
b0000000000000000000000000001101000000000000000000000000000000000 +
b0000000000000000000000000001101100000000000000000000000000000000 *
b00000000000000000000000000000000000000000000000000000010101111100000000000000000000000000000000000000000000000000000000000000000 =
b0000000000000000000000101011111000000000000000000000000000000000 )
b00000000000000000000000101010011010110001000000000000000000000000000000000000000000000000000000000000000000000000000000000000000 >
b0101100010000000000000000000000000000000000000000000000000000000 0
