out/testbench/testbench.1544626467.6076944.vcd
$date
    Wed Dec 12 15:54:27 2018
$end
$version
    MyHDL 0.10
$end
$timescale
    1ns
$end

$scope module testbench $end
$var reg 64 ! y $end
$var reg 64 " x $end
$var reg 1 # reset $end
$var reg 1 $ clk $end
$scope module tanh0 $end
$var reg 64 " x $end
$var reg 1 # reset $end
$var reg 1 $ clock $end
$var reg 64 % y_tmp $end
$var reg 64 ! y $end
$scope module cosinus20 $end
$var reg 64 & const_3 $end
$var reg 64 ' const_2 $end
$var reg 64 ( mnozenie_nawias_si $end
$var reg 64 ) d_nawias_si $end
$var reg 64 * p_nawias_si $end
$var reg 64 + p_mnozenie_si $end
$var reg 64 , my_x $end
$var reg 64 " my_input $end
$var reg 1 # reset $end
$var reg 1 $ clock $end
$var reg 64 % y $end
$var reg 64 - wynik_dzielenia $end
$var reg 64 . silnia_mnozenie $end
$var real 1 / silnia $end
$var reg 64 0 licznik $end
$var reg 64 1 cosinus $end
$var reg 64 2 cos_wyn $end
$var reg 64 3 cos_sklad $end
$var reg 64 4 const_1 $end
$scope module FixedDef0_fx_add0 $end
$var reg 64 , z $end
$var reg 64 " y $end
$var reg 64 0 x $end
$var reg 64 5 add_wide $end
$upscope $end
$scope module FixedDef1_fx_mul0 $end
$var reg 64 + z $end
$var reg 64 0 y $end
$var reg 64 ' x $end
$var reg 128 6 mul_wide $end
$upscope $end
$scope module FixedDef0_fx_add1 $end
$var reg 64 * z $end
$var reg 64 ' y $end
$var reg 64 + x $end
$var reg 64 7 add_wide $end
$upscope $end
$scope module FixedDef0_fx_add2 $end
$var reg 64 ) z $end
$var reg 64 & y $end
$var reg 64 + x $end
$var reg 64 8 add_wide $end
$upscope $end
$scope module FixedDef1_fx_mul1 $end
$var reg 64 ( z $end
$var reg 64 ) y $end
$var reg 64 * x $end
$var reg 128 9 mul_wide $end
$upscope $end
$scope module FixedDef1_fx_mul2 $end
$var reg 64 . z $end
$var reg 64 ( y $end
$var real 1 / x $end
$var reg 128 : mul_wide $end
$upscope $end
$scope module FixedDef0_fx_add3 $end
$var reg 64 3 z $end
$var reg 64 2 y $end
$var reg 64 " x $end
$var reg 64 ; add_wide $end
$upscope $end
$upscope $end
$upscope $end
$upscope $end

$enddefinitions $end
$dumpvars
b0000000000000000000000000000000000000000000000000000000000000000 !
b0000000000000000000000000000000000000000000000000000000000000000 "
0#
0$
b0000000000000000000000000000000000000000000000000000000000000000 %
b0000000000000000000000000000001100000000000000000000000000000000 &
b0000000000000000000000000000001000000000000000000000000000000000 '
b0000000000000000000000000000000000000000000000000000000000000000 (
b0000000000000000000000000000000000000000000000000000000000000000 )
b0000000000000000000000000000000000000000000000000000000000000000 *
b0000000000000000000000000000000000000000000000000000000000000000 +
b0000000000000000000000000000000000000000000000000000000000000000 ,
b0000000000000000000000000000000000000000000000000000000000000000 -
b0000000000000000000000000000000100000000000000000000000000000000 .
s0x100000000 /
b0000000000000000000000000000000000000000000000000000000000000000 0
b0000000000000000000000000000000000000000000000000000000000000000 1
b0000000000000000000000000000000000000000000000000000000000000000 2
b0000000000000000000000000000000000000000000000000000000000000000 3
b0000000000000000000000000000000100000000000000000000000000000000 4
b0000000000000000000000000000000000000000000000000000000000000000 5
b00000000000000000000000000000000000000000000000000000000000000000000000000000000000000000000000000000000000000000000000000000000 6
b0000000000000000000000000000000000000000000000000000000000000000 7
b0000000000000000000000000000000000000000000000000000000000000000 8
b00000000000000000000000000000000000000000000000000000000000000000000000000000000000000000000000000000000000000000000000000000000 9
b00000000000000000000000000000000000000000000000000000000000000000000000000000000000000000000000000000000000000000000000000000000 :
b0000000000000000000000000000000000000000000000000000000000000000 ;
$end
b0000000000000000000000000000000000000000000000000000000000000000 .
b0000000000000000000000000000001100000000000000000000000000000000 8
b0000000000000000000000000000001000000000000000000000000000000000 7
b0000000000000000000000000000001000000000000000000000000000000000 *
b0000000000000000000000000000001100000000000000000000000000000000 )
b00000000000000000000000000000000000000000000000000000000000001100000000000000000000000000000000000000000000000000000000000000000 9
b0000000000000000000000000000011000000000000000000000000000000000 (
b00000000000000000000000000000000000000000000000000000000000001100000000000000000000000000000000000000000000000000000000000000000 :
b0000000000000000000000000000011000000000000000000000000000000000 .
#5
1$
#10
0$
1#
#15
1$
s0x600000000 /
b0000000000000000000000000000000100000000000000000000000000000000 0
b0000000000000000000000000000000100000000000000000000000000000000 5
b00000000000000000000000000000000000000000000000000000000000000100000000000000000000000000000000000000000000000000000000000000000 6
b00000000000000000000000000000000000000000000000000000000001001000000000000000000000000000000000000000000000000000000000000000000 :
b0000000000000000000000000010010000000000000000000000000000000000 .
b0000000000000000000000000000001000000000000000000000000000000000 +
b0000000000000000000000000000000100000000000000000000000000000000 ,
b0000000000000000000000000000010000000000000000000000000000000000 7
b0000000000000000000000000000010100000000000000000000000000000000 8
b0000000000000000000000000000010100000000000000000000000000000000 )
b0000000000000000000000000000010000000000000000000000000000000000 *
b00000000000000000000000000000000000000000000000000000000000101000000000000000000000000000000000000000000000000000000000000000000 9
b0000000000000000000000000001010000000000000000000000000000000000 (
b00000000000000000000000000000000000000000000000000000000011110000000000000000000000000000000000000000000000000000000000000000000 :
b0000000000000000000000000111100000000000000000000000000000000000 .
#20
0$
b0000000000000000000000000000000100000000000000000000000000000000 "
b0000000000000000000000000000001000000000000000000000000000000000 5
b0000000000000000000000000000000100000000000000000000000000000000 ;
b0000000000000000000000000000000100000000000000000000000000000000 3
b0000000000000000000000000000001000000000000000000000000000000000 ,
#25
1$
b0000000000000000000000000000000100000000000000000000000000000000 2
s0x7800000000 /
b0000000000000000000000000000001000000000000000000000000000000000 0
b0000000000000000000000000000001100000000000000000000000000000000 5
b00000000000000000000000000000000000000000000000000000000000001000000000000000000000000000000000000000000000000000000000000000000 6
b00000000000000000000000000000000000000000000000000001001011000000000000000000000000000000000000000000000000000000000000000000000 :
b0000000000000000000000000000001000000000000000000000000000000000 ;
b0000000000000000000000000000001000000000000000000000000000000000 3
b0000000000000000000010010110000000000000000000000000000000000000 .
b0000000000000000000000000000010000000000000000000000000000000000 +
b0000000000000000000000000000001100000000000000000000000000000000 ,
b0000000000000000000000000000011100000000000000000000000000000000 8
b0000000000000000000000000000011000000000000000000000000000000000 7
b0000000000000000000000000000011000000000000000000000000000000000 *
b0000000000000000000000000000011100000000000000000000000000000000 )
b00000000000000000000000000000000000000000000000000000000001010100000000000000000000000000000000000000000000000000000000000000000 9
b0000000000000000000000000010101000000000000000000000000000000000 (
b00000000000000000000000000000000000000000000000000010011101100000000000000000000000000000000000000000000000000000000000000000000 :
b0000000000000000000100111011000000000000000000000000000000000000 .
#30
0$
#35
1$
b0000000000000000000000000000001000000000000000000000000000000000 2
s0x13b000000000 /
b0000000000000000000000000000001100000000000000000000000000000000 0
b00000000000000000000000000000000000000000000000000000000000001100000000000000000000000000000000000000000000000000000000000000000 6
b0000000000000000000000000000010000000000000000000000000000000000 5
b00000000000000000000000000000000000000000000001100111010111000000000000000000000000000000000000000000000000000000000000000000000 :
b0000000000000000000000000000001100000000000000000000000000000000 ;
b0000000000000000000000000000001100000000000000000000000000000000 3
b0000000000000011001110101110000000000000000000000000000000000000 .
b0000000000000000000000000000010000000000000000000000000000000000 ,
b0000000000000000000000000000011000000000000000000000000000000000 +
b0000000000000000000000000000100000000000000000000000000000000000 7
b0000000000000000000000000000100100000000000000000000000000000000 8
b0000000000000000000000000000100100000000000000000000000000000000 )
b0000000000000000000000000000100000000000000000000000000000000000 *
b00000000000000000000000000000000000000000000000000000000010010000000000000000000000000000000000000000000000000000000000000000000 9
b0000000000000000000000000100100000000000000000000000000000000000 (
b00000000000000000000000000000000000000000000010110001001100000000000000000000000000000000000000000000000000000000000000000000000 :
b0000000000000101100010011000000000000000000000000000000000000000 .
#40
0$
#45
1$
b0000000000000000000000000000001100000000000000000000000000000000 2
s0x5898000000000 /
b0000000000000000000000000000010000000000000000000000000000000000 0
b0000000000000000000000000000010100000000000000000000000000000000 5
b00000000000000000000000000000000000000000000000000000000000010000000000000000000000000000000000000000000000000000000000000000000 6
b00000000000000000000000000000000000000011000111010101100000000000000000000000000000000000000000000000000000000000000000000000000 :
b0000000000000000000000000000010000000000000000000000000000000000 ;
b0000000000000000000000000000010000000000000000000000000000000000 3
b0000000110001110101011000000000000000000000000000000000000000000 .
b0000000000000000000000000000100000000000000000000000000000000000 +
b0000000000000000000000000000010100000000000000000000000000000000 ,
b0000000000000000000000000000101100000000000000000000000000000000 8
b0000000000000000000000000000101000000000000000000000000000000000 7
b0000000000000000000000000000101000000000000000000000000000000000 *
b0000000000000000000000000000101100000000000000000000000000000000 )
b00000000000000000000000000000000000000000000000000000000011011100000000000000000000000000000000000000000000000000000000000000000 9
b0000000000000000000000000110111000000000000000000000000000000000 (
b00000000000000000000000000000000000000100110000100010101000000000000000000000000000000000000000000000000000000000000000000000000 :
b0000001001100001000101010000000000000000000000000000000000000000 .
#50
0$
#55
1$
b0000000000000000000000000000010000000000000000000000000000000000 2
s0x261150000000000 /
b0000000000000000000000000000010100000000000000000000000000000000 0
b00000000000000000000000000000000000000000000000000000000000010100000000000000000000000000000000000000000000000000000000000000000 6
b0000000000000000000000000000011000000000000000000000000000000000 5
b00000000000000000000000000000001000001011011011100000110000000000000000000000000000000000000000000000000000000000000000000000000 :
b0000000000000000000000000000010100000000000000000000000000000000 ;
b0000000000000000000000000000010100000000000000000000000000000000 3
b0000010110110111000001100000000000000000000000000000000000000000 .
b0000000000000000000000000000011000000000000000000000000000000000 ,
b0000000000000000000000000000101000000000000000000000000000000000 +
b0000000000000000000000000000110000000000000000000000000000000000 7
b0000000000000000000000000000110100000000000000000000000000000000 8
b0000000000000000000000000000110100000000000000000000000000000000 )
b0000000000000000000000000000110000000000000000000000000000000000 *
b00000000000000000000000000000000000000000000000000000000100111000000000000000000000000000000000000000000000000000000000000000000 9
b0000000000000000000000001001110000000000000000000000000000000000 (
b00000000000000000000000000000001011100110010100011001100000000000000000000000000000000000000000000000000000000000000000000000000 :
b0111001100101000110011000000000000000000000000000000000000000000 .
#60
0$
#65
1$
b0000000000000000000000000000010100000000000000000000000000000000 2
s0x7328cc0000000000 /
b0000000000000000000000000000011000000000000000000000000000000000 0
b0000000000000000000000000000011100000000000000000000000000000000 5
b00000000000000000000000000000000000000000000000000000000000011000000000000000000000000000000000000000000000000000000000000000000 6
b00000000000000000000000001000110001011001101110001010000000000000000000000000000000000000000000000000000000000000000000000000000 :
b0000000000000000000000000000011000000000000000000000000000000000 ;
b0000000000000000000000000000011000000000000000000000000000000000 3
b0010110011011100010100000000000000000000000000000000000000000000 .
b0000000000000000000000000000110000000000000000000000000000000000 +
b0000000000000000000000000000011100000000000000000000000000000000 ,
b0000000000000000000000000000111100000000000000000000000000000000 8
b0000000000000000000000000000111000000000000000000000000000000000 7
b0000000000000000000000000000111000000000000000000000000000000000 *
b0000000000000000000000000000111100000000000000000000000000000000 )
b00000000000000000000000000000000000000000000000000000000110100100000000000000000000000000000000000000000000000000000000000000000 9
b0000000000000000000000001101001000000000000000000000000000000000 (
b00000000000000000000000001011110011101110111011101011000000000000000000000000000000000000000000000000000000000000000000000000000 :
b0111011101110111010110000000000000000000000000000000000000000000 .
#70
0$
#75
1$
b0000000000000000000000000000011000000000000000000000000000000000 2
s0x7777580000000000 /
b0000000000000000000000000000011100000000000000000000000000000000 0
b00000000000000000000000000000000000000000000000000000000000011100000000000000000000000000000000000000000000000000000000000000000 6
b0000000000000000000000000000100000000000000000000000000000000000 5
b00000000000000000000000001100001111111111110011000110000000000000000000000000000000000000000000000000000000000000000000000000000 :
b0000000000000000000000000000011100000000000000000000000000000000 ;
b0000000000000000000000000000011100000000000000000000000000000000 3
b1111111111100110001100000000000000000000000000000000000000000000 .
b0000000000000000000000000000100000000000000000000000000000000000 ,
b0000000000000000000000000000111000000000000000000000000000000000 +
b0000000000000000000000000001000000000000000000000000000000000000 7
b0000000000000000000000000001000100000000000000000000000000000000 8
b0000000000000000000000000001000100000000000000000000000000000000 )
b0000000000000000000000000001000000000000000000000000000000000000 *
b00000000000000000000000000000000000000000000000000000001000100000000000000000000000000000000000000000000000000000000000000000000 9
b0000000000000000000000010001000000000000000000000000000000000000 (
b00000000000000000000000001111110111011101100110110000000000000000000000000000000000000000000000000000000000000000000000000000000 :
b1110111011001101100000000000000000000000000000000000000000000000 .
