out/testbench/testbench.1544623265.3090632.vcd
$date
    Wed Dec 12 15:01:05 2018
$end
$version
    MyHDL 0.10
$end
$timescale
    1ns
$end

$scope module testbench $end
$var reg 32 ! y $end
$var reg 32 " x $end
$var reg 1 # reset $end
$var reg 1 $ clk $end
$scope module tanh0 $end
$var reg 32 " x $end
$var reg 1 # reset $end
$var reg 1 $ clock $end
$var reg 32 % y_tmp $end
$var reg 32 ! y $end
$scope module cosinus20 $end
$var reg 32 & const_3 $end
$var reg 32 ' const_2 $end
$var reg 32 ( mulSI $end
$var reg 32 ) silnia1 $end
$var reg 32 * cosinus_sig1 $end
$var reg 32 + cosinus_sig $end
$var reg 32 , silnia $end
$var reg 32 - mul112 $end
$var reg 32 . mul11 $end
$var reg 32 / liczn_2 $end
$var reg 32 0 xx $end
$var reg 32 " my_input $end
$var reg 1 # reset $end
$var reg 1 $ clock $end
$var reg 32 % y $end
$var reg 32 1 xxx $end
$var reg 32 2 xandxX $end
$var reg 32 3 xandx $end
$var reg 32 4 my_x $end
$var reg 32 5 mulost $end
$var reg 32 6 mul2 $end
$var reg 32 7 mul1122 $end
$var reg 32 8 mul1 $end
$var reg 32 9 licznik1 $end
$var reg 32 : licznik $end
$var reg 32 ; cosinus $end
$var reg 32 < const_1 $end
$var reg 32 = add2 $end
$var reg 32 > add1 $end
$scope module FixedDef0_fx_add0 $end
$var reg 32 > z $end
$var reg 32 ' y $end
$var reg 32 . x $end
$var reg 32 ? add_wide $end
$upscope $end
$scope module FixedDef1_fx_mul0 $end
$var reg 32 . z $end
$var reg 32 : y $end
$var reg 32 ' x $end
$var reg 64 @ mul_wide $end
$upscope $end
$scope module FixedDef1_fx_mul1 $end
$var reg 32 7 z $end
$var reg 32 6 y $end
$var reg 32 8 x $end
$var reg 64 A mul_wide $end
$upscope $end
$scope module FixedDef1_fx_mul2 $end
$var reg 32 3 z $end
$var reg 32 " y $end
$var reg 32 " x $end
$var reg 64 B mul_wide $end
$upscope $end
$scope module FixedDef0_fx_add1 $end
$var reg 32 = z $end
$var reg 32 & y $end
$var reg 32 . x $end
$var reg 32 C add_wide $end
$upscope $end
$scope module FixedDef0_fx_add2 $end
$var reg 32 9 z $end
$var reg 32 < y $end
$var reg 32 : x $end
$var reg 32 D add_wide $end
$upscope $end
$scope module FixedDef0_fx_add3 $end
$var reg 32 + z $end
$var reg 32 4 y $end
$var reg 32 ; x $end
$var reg 32 E add_wide $end
$upscope $end
$scope module FixedDef1_fx_mul3 $end
$var reg 32 ) z $end
$var reg 32 5 y $end
$var reg 32 ) x $end
$var reg 64 F mul_wide $end
$upscope $end
$upscope $end
$upscope $end
$upscope $end

$enddefinitions $end
$dumpvars
b00000000000000000000000000000000 !
b00000000000000000000000000000000 "
0#
0$
b00000000000000000000000000000000 %
b00000000000000000000000000000010 &
b00000000000000000000000000000111 '
b00000000000000000000000000000001 (
b00000000000000000000000000000000 )
b00000000000000000000000000000000 *
b00000000000000000000000000000000 +
b00000000000000000000000000000000 ,
b00000000000000000000000000000000 -
b00000000000000000000000000000000 .
b00000000000000000000000000000000 /
b00000000000000000000000000000000 0
b00000000000000000000000000000000 1
b00000000000000000000000000000000 2
b00000000000000000000000000000000 3
b00000000000000000000000000000000 4
b00000000000000000000000000000000 5
b00000000000000000000000000000000 6
b00000000000000000000000000000000 7
b00000000000000000000000000000000 8
b00000000000000000000000000000000 9
b00000000000000000000000000000000 :
b00000000000000000000000000000000 ;
b00000000000000000000000000000010 <
b00000000000000000000000000000000 =
b00000000000000000000000000000000 >
b00000000000000000000000000000000 ?
b0000000000000000000000000000000000000000000000000000000000000000 @
b0000000000000000000000000000000000000000000000000000000000000000 A
b0000000000000000000000000000000000000000000000000000000000000000 B
b00000000000000000000000000000000 C
b00000000000000000000000000000000 D
b00000000000000000000000000000000 E
b0000000000000000000000000000000000000000000000000000000000000000 F
$end
b00000000000000000000000000000010 D
b00000000000000000000000000000010 C
b00000000000000000000000000000111 ?
b00000000000000000000000000000111 >
b00000000000000000000000000000010 =
b00000000000000000000000000000010 9
#5
1$
#10
0$
1#
#15
1$
b00000000000000000000000000000111 8
b00000000000000000000000000000010 6
b00000000000000000000000000000001 :
b0000000000000000000000000000000000000000000000000000000000000111 @
b00000000000000000000000000000011 D
b0000000000000000000000000000000000000000000000000000000000001110 A
b00000000000000000000000000000011 9
#20
0$
b00000000000000000000000000000001 "
b0000000000000000000000000000000000000000000000000000000000000001 B
#25
1$
b00000000000000000000000000000010 :
b00000000000000000000000000000100 D
b0000000000000000000000000000000000000000000000000000000000001110 @
b00000000000000000000000000000100 9
#30
0$
#35
1$
b00000000000000000000000000000001 ;
b00000000000000000000000000000011 :
b0000000000000000000000000000000000000000000000000000000000010101 @
b00000000000000000000000000000101 D
b00000000000000000000000000000001 E
b00000000000000000000000000000001 +
b00000000000000000000000000000101 9
#40
0$
#45
1$
b00000000000000000000000000000100 :
b00000000000000000000000000000001 %
b00000000000000000000000000000110 D
b0000000000000000000000000000000000000000000000000000000000011100 @
b00000000000000000000000000000110 9
#50
0$
#55
1$
b00000000000000000000000000000001 !
b00000000000000000000000000000010 ;
b00000000000000000000000000000101 :
b0000000000000000000000000000000000000000000000000000000000100011 @
b00000000000000000000000000000111 D
b00000000000000000000000000000010 E
b00000000000000000000000000000010 +
b00000000000000000000000000000111 9
#60
0$
#65
1$
b00000000000000000000000000000110 :
b00000000000000000000000000000010 %
b00000000000000000000000000001000 D
b0000000000000000000000000000000000000000000000000000000000101010 @
b00000000000000000000000000001000 9
#70
0$
#75
1$
b00000000000000000000000000000010 !
b00000000000000000000000000000011 ;
b00000000000000000000000000000111 :
b0000000000000000000000000000000000000000000000000000000000110001 @
b00000000000000000000000000001001 D
b00000000000000000000000000000011 E
b00000000000000000000000000000011 +
b00000000000000000000000000001001 9
#80
0$
#85
1$
b00000000000000000000000000001000 :
b00000000000000000000000000000011 %
b00000000000000000000000000001010 D
b0000000000000000000000000000000000000000000000000000000000111000 @
b00000000000000000000000000001010 9
#90
0$
#95
1$
b00000000000000000000000000000011 !
b00000000000000000000000000000100 ;
b00000000000000000000000000001001 :
b0000000000000000000000000000000000000000000000000000000000111111 @
b00000000000000000000000000001011 D
b00000000000000000000000000000100 E
b00000000000000000000000000000100 +
b00000000000000000000000000001011 9
#100
0$
#105
1$
b00000000000000000000000000001010 :
b00000000000000000000000000000100 %
b00000000000000000000000000001100 D
b0000000000000000000000000000000000000000000000000000000001000110 @
b00000000000000000000000000001100 9
#110
0$
#115
1$
b00000000000000000000000000000100 !
b00000000000000000000000000000101 ;
b00000000000000000000000000001011 :
b00000000000000000000000000000011 %
b0000000000000000000000000000000000000000000000000000000001001101 @
b00000000000000000000000000001101 D
b00000000000000000000000000000101 E
b00000000000000000000000000000101 +
b00000000000000000000000000001101 9
#120
0$
#125
1$
b00000000000000000000000000001100 :
b00000000000000000000000000000101 %
b00000000000000000000000000000011 !
b00000000000000000000000000001110 D
b0000000000000000000000000000000000000000000000000000000001010100 @
b00000000000000000000000000001110 9
#130
0$
#135
1$
b00000000000000000000000000000101 !
b00000000000000000000000000000110 ;
b00000000000000000000000000001101 :
b0000000000000000000000000000000000000000000000000000000001011011 @
b00000000000000000000000000001111 D
b00000000000000000000000000000110 E
b00000000000000000000000000000110 +
b00000000000000000000000000001111 9
#140
0$
#145
1$
b00000000000000000000000000001110 :
b00000000000000000000000000000110 %
b00000000000000000000000000010000 D
b0000000000000000000000000000000000000000000000000000000001100010 @
b00000000000000000000000000010000 9
#150
0$
#155
1$
b00000000000000000000000000000110 !
b00000000000000000000000000000111 ;
b00000000000000000000000000001111 :
b0000000000000000000000000000000000000000000000000000000001101001 @
b00000000000000000000000000010001 D
b00000000000000000000000000000111 E
b00000000000000000000000000000111 +
b00000000000000000000000000010001 9
#160
0$
#165
1$
b00000000000000000000000000010000 :
b00000000000000000000000000000111 %
b00000000000000000000000000010010 D
b0000000000000000000000000000000000000000000000000000000001110000 @
b00000000000000000000000000010010 9
#170
0$
#175
1$
b00000000000000000000000000000111 !
b00000000000000000000000000001000 ;
b00000000000000000000000000010001 :
b0000000000000000000000000000000000000000000000000000000001110111 @
b00000000000000000000000000010011 D
b00000000000000000000000000001000 E
b00000000000000000000000000001000 +
b00000000000000000000000000010011 9
#180
0$
#185
1$
b00000000000000000000000000010010 :
b00000000000000000000000000001000 %
b00000000000000000000000000010100 D
b0000000000000000000000000000000000000000000000000000000001111110 @
b00000000000000000000000000010100 9
#190
0$
#195
1$
b00000000000000000000000000001000 !
b00000000000000000000000000001001 ;
b00000000000000000000000000010011 :
b0000000000000000000000000000000000000000000000000000000010000101 @
b00000000000000000000000000010101 D
b00000000000000000000000000001001 E
b00000000000000000000000000001001 +
b00000000000000000000000000010101 9
#200
0$
#205
1$
b00000000000000000000000000010100 :
b00000000000000000000000000001001 %
b00000000000000000000000000010110 D
b0000000000000000000000000000000000000000000000000000000010001100 @
b00000000000000000000000000010110 9
#210
0$
#215
1$
b00000000000000000000000000001001 !
b00000000000000000000000000001010 ;
b00000000000000000000000000010101 :
b0000000000000000000000000000000000000000000000000000000010010011 @
b00000000000000000000000000010111 D
b00000000000000000000000000001010 E
b00000000000000000000000000001010 +
b00000000000000000000000000010111 9
#220
0$
#225
1$
b00000000000000000000000000010110 :
b00000000000000000000000000001010 %
b00000000000000000000000000011000 D
b0000000000000000000000000000000000000000000000000000000010011010 @
b00000000000000000000000000011000 9
#230
0$
#235
1$
b00000000000000000000000000001010 !
b00000000000000000000000000001011 ;
b00000000000000000000000000010111 :
b0000000000000000000000000000000000000000000000000000000010100001 @
b00000000000000000000000000011001 D
b00000000000000000000000000001011 E
b00000000000000000000000000001011 +
b00000000000000000000000000011001 9
#240
0$
#245
1$
b00000000000000000000000000011000 :
b00000000000000000000000000001011 %
b00000000000000000000000000011010 D
b0000000000000000000000000000000000000000000000000000000010101000 @
b00000000000000000000000000011010 9
#250
0$
#255
1$
b00000000000000000000000000001011 !
b00000000000000000000000000001100 ;
b00000000000000000000000000011001 :
b0000000000000000000000000000000000000000000000000000000010101111 @
b00000000000000000000000000011011 D
b00000000000000000000000000001100 E
b00000000000000000000000000001100 +
b00000000000000000000000000011011 9
#260
0$
#265
1$
b00000000000000000000000000011010 :
b00000000000000000000000000001100 %
b00000000000000000000000000011100 D
b0000000000000000000000000000000000000000000000000000000010110110 @
b00000000000000000000000000011100 9
#270
0$
#275
1$
b00000000000000000000000000001100 !
b00000000000000000000000000001101 ;
b00000000000000000000000000011011 :
b0000000000000000000000000000000000000000000000000000000010111101 @
b00000000000000000000000000011101 D
b00000000000000000000000000001101 E
b00000000000000000000000000001101 +
b00000000000000000000000000011101 9
#280
0$
#285
1$
b00000000000000000000000000011100 :
b00000000000000000000000000001101 %
b00000000000000000000000000011110 D
b0000000000000000000000000000000000000000000000000000000011000100 @
b00000000000000000000000000011110 9
#290
0$
#295
1$
b00000000000000000000000000001101 !
b00000000000000000000000000001110 ;
b00000000000000000000000000011101 :
b0000000000000000000000000000000000000000000000000000000011001011 @
b00000000000000000000000000011111 D
b00000000000000000000000000001110 E
b00000000000000000000000000001110 +
b00000000000000000000000000011111 9
#300
0$
#305
1$
b00000000000000000000000000011110 :
b00000000000000000000000000001110 %
b00000000000000000000000000100000 D
b0000000000000000000000000000000000000000000000000000000011010010 @
b00000000000000000000000000100000 9
#310
0$
#315
1$
b00000000000000000000000000001110 !
b00000000000000000000000000001111 ;
b00000000000000000000000000011111 :
b0000000000000000000000000000000000000000000000000000000011011001 @
b00000000000000000000000000100001 D
b00000000000000000000000000001111 E
b00000000000000000000000000001111 +
b00000000000000000000000000100001 9
#320
0$
#325
1$
b00000000000000000000000000100000 :
b00000000000000000000000000001111 %
b00000000000000000000000000100010 D
b0000000000000000000000000000000000000000000000000000000011100000 @
b00000000000000000000000000100010 9
